Division,WeightClassKg,Place,Name,Team,BodyweightKg,Best3SquatKg,Best3BenchKg,Best3DeadliftKg,TotalKg,Equipment,Event,Sex
Boys,51.71,1,Jared Rocha,Waco Reicher Catholic,50.53,99.79,52.16,127.01,278.96,Single-ply,SBD,M
Boys,51.71,2,Zachary Callaway,Whitney,50.35,92.99,56.7,111.13,260.82,Single-ply,SBD,M
Boys,51.71,3,Stephen Mathison,Whitney,48.08,102.06,56.7,95.25,254.01,Single-ply,SBD,M
Boys,51.71,4,Colby Williamson,Troy,46.08,72.57,45.36,83.91,201.85,Single-ply,SBD,M
Boys,55.79,1,Philip Sharp,Robinson,55.25,167.83,95.25,197.31,460.4,Single-ply,SBD,M
Boys,55.79,2,Diego Rivera,Mexia,52.44,172.37,83.91,163.29,419.57,Single-ply,SBD,M
Boys,55.79,3,Robbie Brewer,Clifton,54.43,147.42,79.38,117.93,344.73,Single-ply,SBD,M
Boys,55.79,4,Bryan McNeill,Rogers,53.34,131.54,70.31,136.08,337.93,Single-ply,SBD,M
Boys,55.79,5,Kolten Mueller,Moody,54.88,117.93,74.84,136.08,328.85,Single-ply,SBD,M
Boys,55.79,6,Cameron Naumann,Florence,54.79,138.35,63.5,122.47,324.32,Single-ply,SBD,M
Boys,55.79,7,Christian Rokes,Franklin,52.53,122.47,70.31,124.74,317.51,Single-ply,SBD,M
Boys,55.79,8,Andres Ramirez,Florence,53.89,129.27,58.97,127.01,315.25,Single-ply,SBD,M
Boys,55.79,9,Joe Guerra,Robinson,54.34,120.2,56.7,136.08,312.98,Single-ply,SBD,M
Boys,55.79,10,Johnny Lewis,Bruceville-Eddy,53.25,113.4,61.23,136.08,310.71,Single-ply,SBD,M
Boys,55.79,11,Joe-Angel Carpenter,Troy,53.52,108.86,65.77,136.08,310.71,Single-ply,SBD,M
Boys,55.79,12,Albert Perales,Waco Connally,53.43,104.33,81.65,120.2,306.17,Single-ply,SBD,M
Boys,55.79,13,Adam Montemayor,Lorena,54.98,111.13,74.84,102.06,288.03,Single-ply,SBD,M
Boys,55.79,14,Jake Durbin,Lorena,55.16,97.52,63.5,111.13,272.16,Single-ply,SBD,M
Boys,55.79,15,Patrick Lewis,Whitney,52.71,92.99,56.7,102.06,251.74,Single-ply,SBD,M
Boys,55.79,DQ,Fausto Rodriguez,West,52.71,,,,,Single-ply,SBD,M
Boys,59.87,1,Bobby Hanson,Axtell,59.42,167.83,102.06,167.83,437.72,Single-ply,SBD,M
Boys,59.87,2,Trevor Koestens,Troy,57.33,165.56,95.25,172.37,433.18,Single-ply,SBD,M
Boys,59.87,3,Davin Carboni,Hillsboro,58.51,163.29,97.52,151.95,412.77,Single-ply,SBD,M
Boys,59.87,4,Rodrigo Hernandez,Hillsboro,59.15,149.69,92.99,165.56,408.23,Single-ply,SBD,M
Boys,59.87,5,Jose Hinojosa,Moody,58.88,151.95,90.72,154.22,396.89,Single-ply,SBD,M
Boys,59.87,6,Osvaldo Antunez,Hillsboro,58.51,140.61,92.99,149.69,383.29,Single-ply,SBD,M
Boys,59.87,7,Alex Reynoso,West,57.52,136.08,79.38,154.22,369.68,Single-ply,SBD,M
Boys,59.87,8,TJ Renfro,Thrall,59.69,115.67,81.65,138.35,335.66,Single-ply,SBD,M
Boys,59.87,9,Coty Blair,Rogers,58.6,102.06,65.77,136.08,303.91,Single-ply,SBD,M
Boys,67.13,1,Cory Sauer,Robinson,66.04,199.58,124.74,199.58,523.9,Single-ply,SBD,M
Boys,67.13,2,Oscar Manuel,Hillsboro,66.13,156.49,102.06,174.63,433.18,Single-ply,SBD,M
Boys,67.13,3,Joseph Bryant,Waco La Vega,63.14,151.95,90.72,183.7,426.38,Single-ply,SBD,M
Boys,67.13,4,Isaiah Houston,Robinson,66.13,161.03,88.45,174.63,424.11,Single-ply,SBD,M
Boys,67.13,5,Ethan Pierce,Rogers,67.13,158.76,79.38,156.49,394.63,Single-ply,SBD,M
Boys,67.13,6,Joshua Bryant,Waco La Vega,65.95,147.42,81.65,161.03,390.09,Single-ply,SBD,M
Boys,67.13,7,Zach Johle,Thrall,64.77,140.61,90.72,154.22,385.55,Single-ply,SBD,M
Boys,67.13,8,Xavier Fisher,Waco La Vega,63.59,149.69,79.38,147.42,376.48,Single-ply,SBD,M
Boys,67.13,9,Philippe Hickman,Waco Reicher Catholic,66.13,127.01,86.18,149.69,362.87,Single-ply,SBD,M
Boys,67.13,10,Jordan Olsen,West,63.87,145.15,70.31,142.88,358.34,Single-ply,SBD,M
Boys,67.13,11,Brandon Zirkle,Florence,64.32,113.4,70.31,154.22,337.93,Single-ply,SBD,M
Boys,67.13,12,Luke Brookshire,Crawford,65.86,127.01,65.77,140.61,333.39,Single-ply,SBD,M
Boys,67.13,13,Tristan Hewitt,Robinson,64.86,120.2,79.38,129.27,328.85,Single-ply,SBD,M
Boys,67.13,14,Javier Trejo,Hillsboro,61.05,120.2,70.31,129.27,319.78,Single-ply,SBD,M
Boys,67.13,15,Gavin Isham,Bosqueville,63.41,120.2,72.57,127.01,319.78,Single-ply,SBD,M
Boys,67.13,16,Dalton Stith,Moody,62.23,122.47,74.84,115.67,312.98,Single-ply,SBD,M
Boys,67.13,17,Hunter Pressley,Waco Connally,62.41,120.2,72.57,113.4,306.17,Single-ply,SBD,M
Boys,67.13,18,Drew Hargrove,Moody,66.77,111.13,68.04,120.2,299.37,Single-ply,SBD,M
Boys,67.13,DQ,AJ Bell,Lorena,63.14,138.35,63.5,,,Single-ply,SBD,M
Boys,74.84,1,Darius Dorsey,Mexia,72.39,204.12,133.81,204.12,542.04,Single-ply,SBD,M
Boys,74.84,2,Kaleb Hairston,Thorndale,72.3,204.12,124.74,183.7,512.56,Single-ply,SBD,M
Boys,74.84,3,Adolfo Rodriguez,West,73.03,204.12,142.88,165.56,512.56,Single-ply,SBD,M
Boys,74.84,4,Irric Deyon,Palestine,69.31,188.24,104.33,204.12,496.68,Single-ply,SBD,M
Boys,74.84,5,Tristian Moore,Franklin,74.03,181.44,115.67,165.56,462.66,Single-ply,SBD,M
Boys,74.84,6,Eli Ferris,Waco Reicher Catholic,73.21,161.03,104.33,183.7,449.06,Single-ply,SBD,M
Boys,74.84,7,John Aynesworth,Waco Reicher Catholic,72.85,163.29,102.06,181.44,446.79,Single-ply,SBD,M
Boys,74.84,8,Colton Gober,Troy,73.39,140.61,83.91,208.65,433.18,Single-ply,SBD,M
Boys,74.84,9,Nathan Gerik,West,68.76,163.29,102.06,147.42,412.77,Single-ply,SBD,M
Boys,74.84,10,Armando Castaneda,Hillsboro,68.22,142.88,97.52,167.83,408.23,Single-ply,SBD,M
Boys,74.84,11,Colin Highfill,Lorena,72.12,161.03,90.72,156.49,408.23,Single-ply,SBD,M
Boys,74.84,12,Dylan Walker,Moody,69.31,149.69,81.65,174.63,405.97,Single-ply,SBD,M
Boys,74.84,13,Mariano Perez,West,74.39,158.76,104.33,131.54,394.63,Single-ply,SBD,M
Boys,74.84,14,Dalton Baker,West,70.03,145.15,92.99,154.22,392.36,Single-ply,SBD,M
Boys,74.84,15,Dustin Richter,Bosqueville,71.3,149.69,81.65,154.22,385.55,Single-ply,SBD,M
Boys,74.84,16,Ernest Stith,Moody,72.94,133.81,102.06,147.42,383.29,Single-ply,SBD,M
Boys,74.84,17,Steven Davis,Moody,71.58,136.08,70.31,174.63,381.02,Single-ply,SBD,M
Boys,74.84,18,Kelton Hooker,Thrall,69.58,133.81,88.45,151.95,374.21,Single-ply,SBD,M
Boys,74.84,19,Dylan Gray,Florence,70.49,147.42,74.84,149.69,371.95,Single-ply,SBD,M
Boys,74.84,20,Tharron Pearl,Mexia,73.12,145.15,79.38,142.88,367.41,Single-ply,SBD,M
Boys,74.84,21,Blaine Waggoner,Waco Reicher Catholic,70.49,142.88,90.72,127.01,360.61,Single-ply,SBD,M
Boys,74.84,22,Colton Wilson,Bosqueville,73.84,136.08,65.77,147.42,349.27,Single-ply,SBD,M
Boys,74.84,23,Dylan Martin,Valley Mills,67.86,127.01,72.57,140.61,340.19,Single-ply,SBD,M
Boys,74.84,24,Mark Riddle,Robinson,74.66,117.93,79.38,131.54,328.85,Single-ply,SBD,M
Boys,74.84,25,Chase Waid,Thrall,72.48,115.67,92.99,117.93,326.59,Single-ply,SBD,M
Boys,74.84,26,Armando Barrientos,Bruceville-Eddy,74.84,104.33,63.5,136.08,303.91,Single-ply,SBD,M
Boys,74.84,27,Ian Smith,Bosqueville,68.95,124.74,58.97,113.4,297.1,Single-ply,SBD,M
Boys,74.84,28,Chandler Dodge,Riesel,69.13,102.06,56.7,124.74,283.5,Single-ply,SBD,M
Boys,74.84,DQ,Nathan McDaniel,Thorndale,67.77,115.67,,,,Single-ply,SBD,M
Boys,74.84,DQ,Garrett Randolph,Troy,70.76,158.76,,,,Single-ply,SBD,M
Boys,74.84,DQ,Reid Petree,Bruceville-Eddy,74.21,165.56,,,,Single-ply,SBD,M
Boys,82.1,1,Drew Roberts,Bosqueville,80.38,197.31,127.01,195.04,519.36,Single-ply,SBD,M
Boys,82.1,2,Fernando Fernandez,Chilton,79.02,185.97,115.67,204.12,505.76,Single-ply,SBD,M
Boys,82.1,3,Desmond Harris,Waco Connally,76.75,190.51,115.67,185.97,492.15,Single-ply,SBD,M
Boys,82.1,4,Alex Hankhouse,Bosqueville,81.37,190.51,111.13,183.7,485.34,Single-ply,SBD,M
Boys,82.1,5,Roderick Deyon,Palestine,76.57,185.97,106.59,183.7,476.27,Single-ply,SBD,M
Boys,82.1,6,Darius Oliver,Mexia,76.57,176.9,102.06,185.97,464.93,Single-ply,SBD,M
Boys,82.1,7,Brady King,Robinson,81.28,185.97,97.52,172.37,455.86,Single-ply,SBD,M
Boys,82.1,8,Hunter Isham,Lorena,82.1,149.69,102.06,204.12,455.86,Single-ply,SBD,M
Boys,82.1,9,Anthony Rodriguez,Lorena,80.56,163.29,97.52,183.7,444.52,Single-ply,SBD,M
Boys,82.1,10,Nico Keaton,Rogers,77.29,181.44,86.18,167.83,435.45,Single-ply,SBD,M
Boys,82.1,11,Richard Zamora,Waco Connally,80.47,172.37,106.59,154.22,433.18,Single-ply,SBD,M
Boys,82.1,12,Jacob Wheat,Palestine,77.38,158.76,92.99,170.1,421.84,Single-ply,SBD,M
Boys,82.1,13,David Kamas,Franklin,76.75,163.29,102.06,154.22,419.57,Single-ply,SBD,M
Boys,82.1,14,Tanner Mitchell,Crawford,81.47,163.29,90.72,145.15,399.16,Single-ply,SBD,M
Boys,82.1,15,Lance Sembera,West,81.65,151.95,102.06,136.08,390.09,Single-ply,SBD,M
Boys,82.1,16,Josh Russell,Rogers,79.65,142.88,86.18,156.49,385.55,Single-ply,SBD,M
Boys,82.1,17,Blake Weaver,Bruceville-Eddy,76.38,142.88,88.45,151.95,383.29,Single-ply,SBD,M
Boys,82.1,18,António Sotero,Hillsboro,79.56,140.61,92.99,149.69,383.29,Single-ply,SBD,M
Boys,82.1,19,Cooper Wagenschein,Robinson,77.56,149.69,81.65,142.88,374.21,Single-ply,SBD,M
Boys,82.1,20,Rolando Ramirez,Hillsboro,79.65,140.61,77.11,142.88,360.61,Single-ply,SBD,M
Boys,82.1,21,James Harrison,Crawford,82.1,115.67,86.18,136.08,337.93,Single-ply,SBD,M
Boys,82.1,22,Reece Phillips #2,Robinson,75.66,127.01,70.31,136.08,333.39,Single-ply,SBD,M
Boys,82.1,23,Corey Preuesse,Thorndale,80.01,136.08,61.23,127.01,324.32,Single-ply,SBD,M
Boys,82.1,24,Dalton Konarsky,Thrall,80.83,102.06,63.5,99.79,265.35,Single-ply,SBD,M
Boys,82.1,25,Marcus Stautz,Thrall,76.57,81.65,54.43,79.38,215.46,Single-ply,SBD,M
Boys,82.1,DQ,Jack Gates,Moody,82.1,,,,,Single-ply,SBD,M
Boys,82.1,DQ,Ryan Austin,Lorena,78.38,138.35,,,,Single-ply,SBD,M
Boys,82.1,DQ,Tyler Schiller,China Spring,80.47,158.76,104.33,,,Single-ply,SBD,M
Boys,89.81,1,Michael Autenrieth,Waco Reicher Catholic,89.81,238.14,142.88,219.99,601.01,Single-ply,SBD,M
Boys,89.81,2,Mason Oliver,Clifton,87.54,222.26,108.86,233.6,564.72,Single-ply,SBD,M
Boys,89.81,3,Koltan Hampton,China Spring,87.18,208.65,129.27,185.97,523.9,Single-ply,SBD,M
Boys,89.81,4,Rahi Patel,Mexia,86.82,176.9,108.86,199.58,485.34,Single-ply,SBD,M
Boys,89.81,5,Timothy Thomas,Whitney,88.27,197.31,102.06,183.7,483.08,Single-ply,SBD,M
Boys,89.81,6,Cortney Young #2,Rogers,84.19,183.7,99.79,195.04,478.54,Single-ply,SBD,M
Boys,89.81,7,Hunter Hartberg,Lorena,85,174.63,124.74,163.29,462.66,Single-ply,SBD,M
Boys,89.81,8,Wyatt Faulkinberry,Lorena,89.81,192.78,115.67,147.42,455.86,Single-ply,SBD,M
Boys,89.81,9,Hernan Arroyo,Moody,82.37,172.37,102.06,179.17,453.59,Single-ply,SBD,M
Boys,89.81,10,Ben Roberson,Robinson,84.55,167.83,108.86,165.56,442.25,Single-ply,SBD,M
Boys,89.81,11,Ryan Hilty,Whitney,87.36,167.83,102.06,172.37,442.25,Single-ply,SBD,M
Boys,89.81,12,Willy Bonilla,Florence,89.54,161.03,108.86,158.76,428.64,Single-ply,SBD,M
Boys,89.81,13,Lorenzo Vargas,Waco Reicher Catholic,85.46,167.83,86.18,170.1,424.11,Single-ply,SBD,M
Boys,89.81,14,Lance Bracco,Crawford,84.64,149.69,106.59,163.29,419.57,Single-ply,SBD,M
Boys,89.81,15,Tristan Fletcher,Moody,86.36,147.42,99.79,167.83,415.04,Single-ply,SBD,M
Boys,89.81,16,Morgan Marshall #1,Crawford,84.82,156.49,102.06,147.42,405.97,Single-ply,SBD,M
Boys,89.81,17,Matt Sparks,West,89.81,154.22,95.25,151.95,401.43,Single-ply,SBD,M
Boys,89.81,18,Gustavo Aguilar,Moody,85.91,127.01,81.65,163.29,371.95,Single-ply,SBD,M
Boys,89.81,19,Logan Schuetz,China Spring,86,124.74,90.72,136.08,351.53,Single-ply,SBD,M
Boys,89.81,20,Vincent Wilson,Rogers,83.64,,127.01,,127.01,Single-ply,B,M
Boys,89.81,DQ,Teel Mesmer,Moody,84.64,142.88,74.84,,,Single-ply,SBD,M
Boys,89.81,DQ,Cayden Ramsey,Mexia,86.82,,,,,Single-ply,SBD,M
Boys,89.81,DQ,Oscar Gomez,Hillsboro,82.55,,,,,Single-ply,SBD,M
Boys,99.79,1,Bobby Graham,Franklin,96.16,226.8,156.49,208.65,591.94,Single-ply,SBD,M
Boys,99.79,2,Alex Falcon,Troy,98.61,217.72,138.35,226.8,582.87,Single-ply,SBD,M
Boys,99.79,3,Daniel Fraire,West,96.16,233.6,136.08,174.63,544.31,Single-ply,SBD,M
Boys,99.79,4,Franco Landeros,Crawford,97.07,204.12,127.01,213.19,544.31,Single-ply,SBD,M
Boys,99.79,5,John Carreno,Bruceville-Eddy,94.62,195.04,111.13,181.44,487.61,Single-ply,SBD,M
Boys,99.79,6,Isaac Weathers,Chilton,97.7,174.63,106.59,197.31,478.54,Single-ply,SBD,M
Boys,99.79,7,Ingnacio Carmona,Hillsboro,91.63,174.63,113.4,174.63,462.66,Single-ply,SBD,M
Boys,99.79,8,Jared Grooms,Waco Reicher Catholic,91.35,167.83,108.86,181.44,458.13,Single-ply,SBD,M
Boys,99.79,9,Cole Tarver,Franklin,97.98,181.44,113.4,158.76,453.59,Single-ply,SBD,M
Boys,99.79,10,Tanner Sparks,West,96.52,165.56,104.33,165.56,435.45,Single-ply,SBD,M
Boys,99.79,11,Alejandro Vega,Palestine,98.79,172.37,102.06,161.03,435.45,Single-ply,SBD,M
Boys,99.79,12,Nathan Red Elk,Robinson,95.35,163.29,104.33,158.76,426.38,Single-ply,SBD,M
Boys,99.79,13,Forsythe Andrew,Waco Connally,93.44,145.15,95.25,142.88,383.29,Single-ply,SBD,M
Boys,99.79,14,Romero Rodriguez,Mexia,92.71,156.49,97.52,124.74,378.75,Single-ply,SBD,M
Boys,99.79,15,Luis Reyes,Mexia,90.36,163.29,63.5,149.69,376.48,Single-ply,SBD,M
Boys,99.79,16,Colton Schmedthorst,Riesel,96.62,129.27,74.84,154.22,358.34,Single-ply,SBD,M
Boys,99.79,17,Adrian Spencer,Florence,99.61,154.22,63.5,136.08,353.8,Single-ply,SBD,M
Boys,99.79,18,Colton Carter,Thrall,96.25,122.47,83.91,140.61,347,Single-ply,SBD,M
Boys,99.79,DQ,Zach Ellsworth,Troy,92.08,,,,,Single-ply,SBD,M
Boys,99.79,DQ,Garrett Moorefield,China Spring,93.71,158.76,,,,Single-ply,SBD,M
Boys,109.77,1,Eric Marton,Axtell,102.51,260.82,138.35,235.87,635.03,Single-ply,SBD,M
Boys,109.77,2,Zach Solano,Rogers,109.77,240.4,147.42,201.85,589.67,Single-ply,SBD,M
Boys,109.77,3,Steven Frausto,Waco Connally,104.24,238.14,124.74,197.31,560.19,Single-ply,SBD,M
Boys,109.77,4,Kris West,Bruceville-Eddy,108.14,204.12,147.42,204.12,555.65,Single-ply,SBD,M
Boys,109.77,5,Mike Cervantes,Lorena,108.77,204.12,113.4,229.06,546.58,Single-ply,SBD,M
Boys,109.77,6,Will Worrell,Crawford,100.61,199.58,104.33,208.65,512.56,Single-ply,SBD,M
Boys,109.77,7,Casey Allison,Waco La Vega,108.14,174.63,127.01,192.78,494.42,Single-ply,SBD,M
Boys,109.77,8,Tylon Johnson,Waco Connally,104.96,176.9,117.93,185.97,480.81,Single-ply,SBD,M
Boys,109.77,9,Ruben Briones,Thorndale,100.06,204.12,104.33,163.29,471.74,Single-ply,SBD,M
Boys,109.77,10,Humberto Gutierrez,Palestine,101.51,185.97,127.01,156.49,469.47,Single-ply,SBD,M
Boys,109.77,11,Michael Simmons,Waco La Vega,100.06,181.44,106.59,165.56,453.59,Single-ply,SBD,M
Boys,109.77,12,Jacob Byrd #3,Lorena,104.6,181.44,108.86,158.76,449.06,Single-ply,SBD,M
Boys,109.77,13,Kavan Dooley,Franklin,108.86,183.7,90.72,167.83,442.25,Single-ply,SBD,M
Boys,109.77,14,Zach Karnowski,Moody,105.32,165.56,111.13,163.29,439.98,Single-ply,SBD,M
Boys,109.77,15,Levi Libhart,Rogers,101.15,172.37,95.25,165.56,433.18,Single-ply,SBD,M
Boys,109.77,16,Chaas Firth,Whitney,102.24,154.22,88.45,181.44,424.11,Single-ply,SBD,M
Boys,109.77,DQ,Isaac Contreras,Moody,100.79,165.56,90.72,,,Single-ply,SBD,M
Boys,124.74,1,Blake Johnson,Franklin,121.83,290.3,158.76,251.74,700.8,Single-ply,SBD,M
Boys,124.74,2,Robert Gober,Waco Connally,123.29,260.82,138.35,204.12,603.28,Single-ply,SBD,M
Boys,124.74,3,Jairo Rodriguez,Waco La Vega,123.74,192.78,136.08,215.46,544.31,Single-ply,SBD,M
Boys,124.74,4,Kellan Anderson,Rogers,113.49,208.65,104.33,195.04,508.02,Single-ply,SBD,M
Boys,124.74,5,Joe Fallwell,Whitney,121.47,181.44,124.74,192.78,498.95,Single-ply,SBD,M
Boys,124.74,6,Vincent Torres,Waco Connally,115.3,174.63,102.06,208.65,485.34,Single-ply,SBD,M
Boys,124.74,7,Logan Begesse,China Spring,111.58,183.7,124.74,147.42,455.86,Single-ply,SBD,M
Boys,124.74,8,Hunter Straten,Moody,113.85,158.76,90.72,163.29,412.77,Single-ply,SBD,M
Boys,124.74,9,Marc Neaves,Rogers,115.67,158.76,74.84,145.15,378.75,Single-ply,SBD,M
Boys,124.74,10,Tristan Johansen,Crawford,120.66,154.22,74.84,129.27,358.34,Single-ply,SBD,M
Boys,124.74,DQ,Crispin Salinas,Chilton,122.74,161.03,95.25,,,Single-ply,SBD,M
Boys,124.74,DQ,Edwin Florian,Palestine,123.74,204.12,165.56,,,Single-ply,SBD,M
Boys,124.74,DQ,Josh Tillis,Palestine,116.03,,,,,Single-ply,SBD,M
Boys,124.74,DQ,Henry Dawson,Waco La Vega,121.74,195.04,,,,Single-ply,SBD,M
Boys,124.74+,1,Jordan Rivera,Waco La Vega,130.09,283.5,192.78,251.74,728.02,Single-ply,SBD,M
Boys,124.74+,2,Tyler Flowers,Bosqueville,133.17,244.94,142.88,238.14,625.96,Single-ply,SBD,M
Boys,124.74+,3,Traylon Berry,Waco La Vega,138.16,263.08,142.88,210.92,616.89,Single-ply,SBD,M
Boys,124.74+,4,Trederek Anglin,Mexia,149.69,208.65,145.15,217.72,571.53,Single-ply,SBD,M
Boys,124.74+,5,Jaylen Tobler,Waco Connally,165.56,267.62,115.67,163.29,546.58,Single-ply,SBD,M
Boys,124.74+,6,Ethan Mendoza,Rogers,126.37,231.33,120.2,183.7,535.24,Single-ply,SBD,M
Boys,124.74+,7,Jorge Tapia,Waco La Vega,127.73,238.14,124.74,170.1,532.97,Single-ply,SBD,M
Boys,124.74+,8,Demarcus Mason,Waco La Vega,131.27,190.51,120.2,197.31,508.02,Single-ply,SBD,M
Boys,124.74+,9,Seth Kohlscheen,Crawford,129.46,226.8,113.4,165.56,505.76,Single-ply,SBD,M
Boys,124.74+,10,Austin Culver,Bruceville-Eddy,132.18,158.76,136.08,183.7,478.54,Single-ply,SBD,M
Boys,124.74+,11,James Fry,Rogers,129.91,195.04,108.86,170.1,474,Single-ply,SBD,M
Boys,124.74+,12,Jacob Villa,Robinson,134.17,188.24,131.54,147.42,467.2,Single-ply,SBD,M
Boys,124.74+,13,Juan Rodriguez,Clifton,140.25,181.44,86.18,181.44,449.06,Single-ply,SBD,M
Boys,124.74+,14,Chase Lankford,Waco Connally,146.78,154.22,83.91,147.42,385.55,Single-ply,SBD,M
Boys,124.74+,15,Avery Wallace,Florence,147.96,136.08,104.33,142.88,383.29,Single-ply,SBD,M
Boys,,NS,Gus Mulsow,Riesel,,,,,,Single-ply,SBD,M
