Name,Sex,Tested,Division,TotalKg,BodyweightKg,WeightClassKg,Best3SquatKg,Best3BenchKg,Best3DeadliftKg,Event,Equipment,Place
Michail Damtsias,M,No,Teen,50,45,52,,50,,B,Raw,1
Konstantinos Dimitrakos,M,No,Juniors,100,67.5,67.5,,100,,B,Raw,1
Lefteris Pagidas,M,No,Masters,67.5,,67.5,,67.5,,B,Raw,1
Lefteris Pagidas,M,No,Masters,95,,67.5,,,95,D,Raw,1
Vasilis Kotsis,M,No,Juniors,307.5,66.3,67.5,90,77.5,140,SBD,Wraps,4
Eftichis Protopapadakis,M,No,Open,370,65.6,67.5,125,95,150,SBD,Wraps,4
Athanasios Sofronis,M,No,Open,,,67.5,,,,SBD,Wraps,DQ
Panagiotis Gdontakis,M,No,Teen,,72,75,,,,B,Raw,DQ
Paraskevas Amanatidis,M,No,Teen,,72.8,75,,,,B,Raw,DQ
Giorgos Vlachogiannis,M,No,Juniors,90,72.6,75,,90,,B,Raw,1
Foivos Karabetsos,M,No,Open,105,73,75,,105,,B,Raw,13
Paraskevas Amanatidis,M,No,Teen,165,72.8,75,,,165,D,Raw,3
Iakovos Peristeridis,M,No,Teen,160,73.8,75,,,160,D,Raw,5
Panagiotis Kachilelis,M,No,Open,190,74.6,75,,,190,D,Raw,7
Dimitrios Tsiropoulos,M,No,Open,,72.6,75,,,,D,Raw,DQ
Paraskevas Amanatidis,M,No,Teen,,72.8,75,130,165,,SBD,Raw,DQ
Athanasios Athanasopoulos,M,No,Teen,350,74.3,75,105,90,155,SBD,Wraps,2
Giorgos Dimitrakopoulos,M,No,Teen,262.5,73,75,92.5,70,100,SBD,Wraps,3
Dimitrios Pallis,M,No,Juniors,485,75,75,167.5,112.5,205,SBD,Wraps,1
Nick Michalopoulos,M,No,Open,500,73.2,75,162.5,125,212.5,SBD,Raw,6
Panagiotis Kachilelis,M,No,Open,490,74.6,75,155,145,190,SBD,Wraps,9
Christos Rovos,M,No,Open,405,71.4,75,122.5,107.5,175,SBD,Wraps,11
Georgios Kolofotias,M,No,Open,370,71,75,115,115,140,SBD,Wraps,12
Dimitrios Tsiropoulos,M,No,Open,,72.6,75,,,,SBD,Wraps,DQ
Dimitrios Anthis,M,No,Open,,,82.5,,,,B,Raw,DQ
Alexandros Chalikias,M,No,Teen,190,79.5,82.5,,,190,D,Raw,5
Michalis Salasidis,M,No,Open,220,80,82.5,,,220,D,Raw,1
Nikolaos Triantafyllou,M,No,Teen,,,82.5,,,,SBD,Raw,DQ
Christos Papoutsis,M,No,Juniors,600,81.5,82.5,207.5,145,247.5,SBD,Raw,1
Giorgos Dimitrakopoulos,M,No,Teen,,,82.5,,,,SBD,Wraps,DQ
Christos Sittas,M,No,Juniors,512.5,82.5,82.5,165,135,212.5,SBD,Wraps,5
Efthymios Tserepas,M,No,Open,485,80,82.5,160,140,185,SBD,Wraps,3
Alexandros Koutrakis,M,No,Open,460,81,82.5,160,110,190,SBD,Wraps,4
Michalis Salasidis,M,No,Open,445,80,82.5,125,100,220,SBD,Wraps,5
Apostolos Skiathitis,M,No,Open,435,80,82.5,165,80,190,SBD,Wraps,6
Nikolaos Venieris,M,No,Open,,81,82.5,130,125,,SBD,Wraps,DQ
Konstantinos Lazaris,M,No,Masters,557.5,77.5,82.5,192.5,135,230,SBD,Wraps,1
Georgios Samaras,M,No,Open,155,84.5,90,,155,,B,Raw,5
Themistoklis Koufoulis,M,No,Open,,,90,,,,B,Raw,DQ
Nikolaos Mantzakos,M,No,Open,247.5,88.4,90,,,247.5,D,Raw,4
Georgios Samaras,M,No,Open,225,84.5,90,,,225,D,Raw,7
Panagiotis Dimitropoulos,M,No,Teen,357.5,82.7,90,125,75,157.5,SBD,Wraps,3
Michael Mamalakis,M,No,Open,647.5,87.9,90,237.5,160,250,SBD,Wraps,1
Georgios Samaras,M,No,Open,575,84.5,90,195,155,225,SBD,Wraps,2
Nikolaos Mantzakos,M,No,Open,555,88.4,90,180,127.5,247.5,SBD,Wraps,3
Athanasios Gournelos,M,No,Open,,90,90,160,,210,SBD,Wraps,DQ
Emmanouel Varveris,M,No,Open,172.5,96.15,100,,172.5,,B,Raw,2
George Xiromeritis,M,No,Open,135,95,100,,135,,B,Raw,9
Konstantinos Alexopoulos,M,No,Masters,192.5,99.5,100,,192.5,,B,Raw,1
Emmanouel Varveris,M,No,Open,302.5,96.15,100,,,302.5,D,Raw,1
Panagiotis Kalamidas,M,No,Open,245,99,100,,,245,D,Raw,6
George Xiromeritis,M,No,Open,210,95,100,,,210,D,Raw,9
Konstantinos Alexopoulos,M,No,Masters,250,99.5,100,,,250,D,Raw,1
Emmanouel Varveris,M,No,Open,750,96.15,100,275,172.5,302.5,SBD,Raw,1
Michalis Tatas,M,No,Teen,375,94.5,100,130,85,160,SBD,Wraps,3
Konstantinos Fitsios,M,No,Open,585,96.85,100,215,140,230,SBD,Wraps,3
Konstantinos Fassas,M,No,Juniors,125,109,110,,125,,B,Raw,1
Konstantinos Tromaras,M,No,Open,180,108.6,110,,180,,B,Raw,3
Dimitrios Kouprizas,M,No,Open,135,107.8,110,,135,,B,Raw,8
Konstantinos Fassas,M,No,Juniors,175,109,110,,,175,D,Raw,1
Dimitrios Kouprizas,M,No,Open,230,107.8,110,,,230,D,Raw,5
Dionysios Stamatelatos,M,No,Open,,,110,,,,SBD,Wraps,DQ
Theofanis Karatzoglou,M,No,Masters,,,125,,,,B,Raw,DQ
Theofanis Karatzoglou,M,No,Masters,,,125,,,,D,Raw,DQ
Panagiotis Sarantis,M,No,Open,602.5,122,125,215,187.5,200,SBD,Wraps,1
Theofanis Karatzoglou,M,No,Masters,,,125,,,,SBD,Wraps,DQ
Mairi Tsimpi,F,No,Masters,77.5,55.8,56,,77.5,,B,Raw,1
Mairi Tsimpi,F,No,Masters,125,55.8,56,,,125,D,Raw,1
Cecilia Michalopoulou,F,No,Juniors,257.5,54.25,56,100,50,107.5,SBD,Raw,1
Ioanna Papadimitriou,F,No,Juniors,302.5,82,82.5,102.5,55,145,SBD,Wraps,1
Mairi Tsimpi,F,No,Masters,320,55.8,56,117.5,77.5,125,SBD,Wraps,1
Omri Kol,M,No,Open,140,67,67.5,,140,,B,Raw,1
Panagiotis Thrasiou,M,Yes,Teen,,64.1,67.5,,,,B,Raw,DQ
Nikitas Loukas,M,Yes,Juniors,,,67.5,,,,B,Raw,DQ
Emmanouil Chachlos,M,Yes,Open,130,67.2,67.5,,130,,B,Raw,3
Kyriakos Georgiopoulos,M,Yes,Open,100,65.8,67.5,,100,,B,Raw,5
Omri Kol,M,No,Open,230,67,67.5,,,230,D,Raw,1
Nikitas Loukas,M,Yes,Juniors,,,67.5,,,,D,Raw,DQ
Kyriakos Georgiopoulos,M,Yes,Open,200,65.8,67.5,,,200,D,Raw,3
Omri Kol,M,No,Open,370,67,67.5,,140,230,BD,Raw,1
Kyriakos Georgiopoulos,M,Yes,Open,300,65.8,67.5,,100,200,BD,Raw,2
Omri Kol,M,No,Open,580,67,67.5,210,140,230,SBD,Wraps,1
Ilias Bekas,M,Yes,Juniors,392.5,64.7,67.5,155,77.5,160,SBD,Raw,2
Prodromos Santaloglou,M,Yes,Teen,232.5,62.6,67.5,70,57.5,105,SBD,Wraps,1
Dimitrios Vourazanis,M,Yes,Juniors,422.5,67.2,67.5,160,85,177.5,SBD,Wraps,2
Ioannis Rossiadis,M,Yes,Juniors,362.5,66.6,67.5,105,107.5,150,SBD,Wraps,3
Kyriakos Georgiopoulos,M,Yes,Open,440,65.8,67.5,140,100,200,SBD,Wraps,3
Konstantinos Kitsos,M,Yes,Open,,,67.5,,,,SBD,Wraps,DQ
Ran Cohen,M,No,Open,135,75,75,,135,,B,Raw,4
Zefiris Tzeimi North,M,Yes,Teen,,,75,,,,B,Raw,DQ
Rodi Bidollari,M,Yes,Teen,80,72.2,75,,80,,B,Raw,2
Panagiotis Kachilelis,M,Yes,Open,145,74.6,75,,145,,B,Raw,2
Giannis Mitsiadis,M,Yes,Open,145,75,75,,145,,B,Raw,3
Ioannis Stratakis,M,Yes,Open,127.5,75,75,,127.5,,B,Raw,6
Alexandros Sakarikas,M,Yes,Open,125,73.7,75,,125,,B,Raw,8
Georgios Kolofotias,M,Yes,Open,115,71,75,,115,,B,Raw,10
Christos Rovos,M,Yes,Open,107.5,71.4,75,,107.5,,B,Raw,12
Ran Cohen,M,No,Open,272.5,75,75,,,272.5,D,Raw,1
Konstantinos Karangelis,M,Yes,Teen,162.5,73.7,75,,,162.5,D,Raw,4
Zefiris Tzeimi North,M,Yes,Teen,,,75,,,,D,Raw,DQ
Rodi Bidollari,M,Yes,Teen,185,72.2,75,,,185,D,Raw,2
Ioannis Stratakis,M,Yes,Open,227.5,75,75,,,227.5,D,Raw,3
Alexandros Sakarikas,M,Yes,Open,225,73.7,75,,,225,D,Raw,5
Samer Abdullah,M,Yes,Open,210,74.4,75,,,210,D,Raw,6
Christos Rovos,M,Yes,Open,175,71.4,75,,,175,D,Raw,9
Nikolaos Koukoulakis,M,Yes,Masters,,74,75,,,,D,Raw,DQ
Ran Cohen,M,No,Open,407.5,75,75,,135,272.5,BD,Raw,1
Rodi Bidollari,M,Yes,Teen,265,72.2,75,,80,185,BD,Raw,1
Dimitrios Pallis,M,Yes,Juniors,317.5,75,75,,112.5,205,BD,Raw,1
Ioannis Stratakis,M,Yes,Open,355,75,75,,127.5,227.5,BD,Raw,2
Alexandros Sakarikas,M,Yes,Open,350,73.7,75,,125,225,BD,Raw,3
Konstantinos Sampanis,M,No,Open,,,75,,,,SBD,Raw,DQ
Ran Cohen,M,No,Open,622.5,75,75,215,135,272.5,SBD,Wraps,1
Rodi Bidollari,M,Yes,Teen,445,72.2,75,180,80,185,SBD,Raw,2
Giannis Mitsiadis,M,Yes,Open,552.5,75,75,200,145,207.5,SBD,Raw,2
Konstantinos Karangelis,M,Yes,Teen,352.5,73.7,75,120,70,162.5,SBD,Wraps,1
Zefiris Tzeimi North,M,Yes,Teen,,,75,,,,SBD,Wraps,DQ
Alexandros Sakarikas,M,Yes,Open,530,73.7,75,180,125,225,SBD,Wraps,3
Ioannis Stratakis,M,Yes,Open,525,75,75,170,127.5,227.5,SBD,Wraps,5
Vasilis Rounis,M,Yes,Open,495,73.2,75,165,127.5,202.5,SBD,Wraps,8
Samer Abdullah,M,Yes,Open,450,74.4,75,160,80,210,SBD,Wraps,10
Argyris Katsoulas,M,No,Masters,142.5,82.2,82.5,,142.5,,B,Raw,2
Giorgos Georgiadis,M,Yes,Teen,80,82.5,82.5,,80,,B,Raw,2
Efthymios Tserepas,M,Yes,Open,140,80,82.5,,140,,B,Raw,2
Ilias Xrysanthopoulos,M,No,Open,220,80.7,82.5,,,220,D,Raw,3
Argyris Katsoulas,M,No,Masters,205,82.2,82.5,,,205,D,Raw,2
Dimitrios Iliadis,M,Yes,Teen,225,82.4,82.5,,,225,D,Raw,2
Giorgos Georgiadis,M,Yes,Teen,205,82.5,82.5,,,205,D,Raw,4
Nikolaos Saliveros,M,Yes,Juniors,235,81.5,82.5,,,235,D,Raw,2
Vaggelis Marinos,M,Yes,Juniors,230,82.2,82.5,,,230,D,Raw,4
Aristotelis Anthis,M,Yes,Open,187.5,79,82.5,,,187.5,D,Raw,5
Argyris Katsoulas,M,No,Masters,347.5,82.2,82.5,,142.5,205,BD,Raw,1
Giorgos Georgiadis,M,Yes,Teen,285,82.5,82.5,,80,205,BD,Raw,1
Argyris Katsoulas,M,No,Masters,502.5,82.2,82.5,155,142.5,205,SBD,Wraps,3
Nikolaos Saliveros,M,Yes,Juniors,545,81.5,82.5,205,105,235,SBD,Raw,3
Giorgos Georgiadis,M,Yes,Teen,455,82.5,82.5,170,80,205,SBD,Wraps,2
Parmenion Delialis,M,Yes,Juniors,575.5,82.3,82.5,210,140.5,225,SBD,Wraps,1
Vaggelis Marinos,M,Yes,Juniors,530,82.2,82.5,192.5,107.5,230,SBD,Wraps,3
Dimitrios Delialis,M,Yes,Juniors,517.5,77.5,82.5,177.5,130,210,SBD,Wraps,4
Mattheos Stylianidis,M,Yes,Juniors,497.5,79,82.5,180,125,192.5,SBD,Wraps,6
Dimokratis Abdulla,M,Yes,Open,547.5,80.75,82.5,190,132.5,225,SBD,Wraps,2
Ioannis Ntagounakis,M,No,Open,170,88.4,90,,170,,B,Raw,4
Paraskevas Mitropoulos,M,No,Open,142.5,90,90,,142.5,,B,Raw,6
Gal Adato,M,No,Masters,135,88.3,90,,135,,B,Raw,1
Rafael Wasker,M,No,Masters,120,85.7,90,,120,,B,Raw,4
Manolis Konstantakakis,M,Yes,Teen,90,88.6,90,,90,,B,Raw,2
Panagiotis Kariotis,M,Yes,Open,180,88.6,90,,180,,B,Raw,2
Aggelos Karonis,M,Yes,Open,137.5,88.9,90,,137.5,,B,Raw,8
Konstantinos Damtsias,M,Yes,Open,,87.7,90,,,,B,Raw,DQ
Nikolaos Kounis,M,Yes,Open,,88.8,90,,,,B,Raw,DQ
Ippokratis Mildakos,M,Yes,Masters,135,89.5,90,,135,,B,Raw,3
Ioannis Ntagounakis,M,No,Open,280,88.4,90,,,280,D,Raw,2
Paraskevas Mitropoulos,M,No,Open,260,90,90,,,260,D,Raw,3
Gal Adato,M,No,Masters,260,88.3,90,,,260,D,Raw,1
Rafael Wasker,M,No,Masters,210,85.7,90,,,210,D,Raw,4
Manolis Konstantakakis,M,Yes,Teen,175,88.6,90,,,175,D,Raw,2
Aggelos Karonis,M,Yes,Open,235,88.9,90,,,235,D,Raw,6
Panagiotis Kariotis,M,Yes,Open,215,88.6,90,,,215,D,Raw,9
Nikolaos Kounis,M,Yes,Open,,88.8,90,,,,D,Raw,DQ
Ippokratis Mildakos,M,Yes,Masters,215,89.5,90,,,215,D,Raw,3
Ioannis Ntagounakis,M,No,Open,450,88.4,90,,170,280,BD,Raw,1
Paraskevas Mitropoulos,M,No,Open,402.5,90,90,,142.5,260,BD,Raw,2
Gal Adato,M,No,Masters,395,88.3,90,,135,260,BD,Raw,1
Rafael Wasker,M,No,Masters,330,85.7,90,,120,210,BD,Raw,3
Manolis Konstantakakis,M,Yes,Teen,265,88.6,90,,90,175,BD,Raw,1
Panagiotis Kariotis,M,Yes,Open,395,88.6,90,,180,215,BD,Raw,3
Aggelos Karonis,M,Yes,Open,372.5,88.9,90,,137.5,235,BD,Raw,4
Nikolaos Kounis,M,Yes,Open,,88.8,90,,,,BD,Raw,DQ
Ippokratis Mildakos,M,Yes,Masters,350,89.5,90,,135,215,BD,Raw,2
Ioannis Ntagounakis,M,No,Open,735,88.4,90,285,170,280,SBD,Raw,2
Paraskevas Mitropoulos,M,No,Open,675,90,90,272.5,142.5,260,SBD,Raw,3
Gal Adato,M,No,Masters,608,88.3,90,213,135,260,SBD,Raw,1
Rafael Wasker,M,No,Masters,515,85.7,90,185,120,210,SBD,Raw,2
Themistoklis Antoniadis,M,Yes,Juniors,,,90,,,,SBD,Raw,DQ
Aggelos Karonis,M,Yes,Open,562.5,88.9,90,190,137.5,235,SBD,Raw,5
Antonis Korkofigkas,M,Yes,Open,470,89,90,185,100,185,SBD,Raw,7
Apostolos Kolokithas,M,Yes,Open,,90,90,,,,SBD,Raw,DQ
Manolis Konstantakakis,M,Yes,Teen,415,88.6,90,150,90,175,SBD,Wraps,2
Athanasios Peredis Panagiotis,M,Yes,Juniors,,,90,,,,SBD,Wraps,DQ
Nikolaos Kounis,M,Yes,Open,170,88.8,90,170,,,S,Wraps,6
Ippokratis Mildakos,M,Yes,Masters,527.5,89.5,90,177.5,135,215,SBD,Wraps,2
Dimitrios Velonas,M,No,Open,172.5,,100,,172.5,,B,Raw,4
Marios Vasilopoulos,M,Yes,Juniors,115,95.5,100,,115,,B,Raw,2
Anthony Chatzipanagiotis,M,Yes,Juniors,112.5,94.2,100,,112.5,,B,Raw,4
Konstantinos Toziolos,M,Yes,Open,180,,100,,180,,B,Raw,1
Dimitrios Rallis,M,Yes,Open,167.5,99.95,100,,167.5,,B,Raw,6
Ioannis Pantalaios,M,Yes,Open,155,98.6,100,,155,,B,Raw,8
Anastasios Droutsas,M,Yes,Open,127.5,98.9,100,,127.5,,B,Raw,11
Konstantinos Alexopoulos,M,Yes,Masters,192.5,99.5,100,,192.5,,B,Raw,2
Dimitrios Velonas,M,No,Open,270,,100,,,270,D,Raw,5
Krasimir Krachunov,M,No,Open,,,100,,,,D,Raw,DQ
Georgios Romanos Dramountanis,M,Yes,Teen,220,98.2,100,,,220,D,Raw,1
Anthony Chatzipanagiotis,M,Yes,Juniors,195,94.2,100,,,195,D,Raw,2
Dimitrios Rallis,M,Yes,Open,301,99.95,100,,,301,D,Raw,3
Anastasios Droutsas,M,Yes,Open,217.5,98.9,100,,,217.5,D,Raw,8
Konstantinos Alexopoulos,M,Yes,Masters,250,99.5,100,,,250,D,Raw,2
Spyridon Katsigiannis,M,Yes,Masters,197.5,97,100,,,197.5,D,Raw,4
Dimitrios Velonas,M,No,Open,442.5,,100,,172.5,270,BD,Raw,2
Dimitrios Rallis,M,Yes,Open,468.5,99.95,100,,167.5,301,BD,Raw,1
Anastasios Droutsas,M,Yes,Open,345,98.9,100,,127.5,217.5,BD,Raw,3
Dimitrios Velonas,M,No,Open,647.5,,100,205,172.5,270,SBD,Wraps,2
Dimitrios Rallis,M,Yes,Open,728.5,99.95,100,260,167.5,301,SBD,Raw,3
Konstantinos Toziolos,M,Yes,Open,640,,100,220,180,240,SBD,Raw,5
Georgios Romanos Dramountanis,M,Yes,Teen,480,98.2,100,150,110,220,SBD,Wraps,2
Anastasios Droutsas,M,Yes,Open,535,98.9,100,190,127.5,217.5,SBD,Wraps,5
Thomas Aggelakis,M,No,Open,182.5,107,110,,182.5,,B,Raw,2
Georgios Liakos,M,Yes,Open,165,106.5,110,,165,,B,Raw,5
Dionysios Anastasiou,M,Yes,Open,152.5,101.5,110,,152.5,,B,Raw,7
George Mazarakis,M,Yes,Open,110,110,110,,110,,B,Raw,10
Thomas Aggelakis,M,No,Open,270,107,110,,,270,D,Raw,2
Georgios Liakos,M,Yes,Open,260,106.5,110,,,260,D,Raw,4
George Mazarakis,M,Yes,Open,210,110,110,,,210,D,Raw,7
Dionysios Anastasiou,M,Yes,Open,205,101.5,110,,,205,D,Raw,9
Thomas Aggelakis,M,No,Open,452.5,107,110,,182.5,270,BD,Raw,1
George Mazarakis,M,Yes,Open,320,110,110,,110,210,BD,Raw,2
Nikos Samaras,M,No,Juniors,807.5,108.4,110,320,172.5,315,SBD,Raw,2
Yaniv Agababa,M,No,Juniors,,,110,,,,SBD,Raw,DQ
Thomas Aggelakis,M,No,Open,712.5,107,110,260,182.5,270,SBD,Wraps,2
Christos Aivatoglou,M,Yes,Open,680,105,110,265,165,250,SBD,Raw,2
George Mazarakis,M,Yes,Open,520,110,110,200,110,210,SBD,Raw,4
Georgios Liakos,M,Yes,Open,670,106.5,110,245,165,260,SBD,Wraps,4
Pantelis Sapounakis,M,No,Open,223,116.6,125,,223,,B,Raw,2
Athanasios Liouras,M,No,Open,165,117,125,,165,,B,Raw,6
Dimitrios Athanasopoulos,M,No,Open,,121,125,,,,B,Raw,DQ
Panagiotis Sarantis,M,Yes,Open,187.5,122,125,,187.5,,B,Raw,4
Pantelis Sapounakis,M,No,Open,302.5,116.6,125,,,302.5,D,Raw,2
Athanasios Liouras,M,No,Open,290,117,125,,,290,D,Raw,4
Evgeny Shapira,M,Yes,Open,230,113,125,,,230,D,Raw,5
Pantelis Sapounakis,M,No,Open,525.5,116.6,125,,223,302.5,BD,Raw,1
Athanasios Liouras,M,No,Open,455,117,125,,165,290,BD,Raw,2
Tohar Softi,M,No,Teen,,,125,,,,SBD,Raw,DQ
Pantelis Sapounakis,M,No,Open,835.5,116.6,125,310,223,302.5,SBD,Raw,2
Kostas Trifinopoulos,M,No,Masters,270,,125,,,270,D,Raw,1
Evgeny Shapira,M,Yes,Open,230,113,125,,,230,D,Raw,3
Patroklos Androulakis-Korakakis,M,Yes,Juniors,,120.4,125,240,,230,SBD,Wraps,DQ
Thodoris Karageorgos,M,Yes,Masters,575,121.8,125,195,135,245,SBD,Wraps,2
Ioannis Koukoutselas,M,Yes,Open,187.5,126.3,140,,187.5,,B,Raw,2
Nikolaos Finitsis,M,Yes,Open,200,135,140,,,200,D,Raw,2
Nikolaos Finitsis,M,Yes,Open,495,135,140,180,115,200,SBD,Wraps,1
Emmanouil Marizas,M,Yes,Open,130,152,140+,,130,,B,Raw,2
Emmanouil Pafilias,M,Yes,Masters,155,160,140+,,155,,B,Raw,2
Emmanouil Marizas,M,Yes,Open,270,152,140+,,,270,D,Raw,2
Emmanouil Marizas,M,Yes,Open,400,152,140+,,130,270,BD,Raw,1
Emmanouil Marizas,M,Yes,Open,662.5,152,140+,262.5,130,270,SBD,Raw,2
Danae Errika Panagiotou,F,Yes,Open,45,47,48,,45,,B,Raw,1
Lydia Sfyraki,F,Yes,Juniors,50,67.5,67.5,,50,,B,Raw,2
Danae Errika Panagiotou,F,Yes,Open,112.5,47,48,,,112.5,D,Raw,1
Lydia Sfyraki,F,Yes,Juniors,107.5,67.5,67.5,,,107.5,D,Raw,2
Eleni Papadimitriou,F,Yes,Teen,135,79,82.5,,,135,D,Raw,1
Noam Steuer,F,No,Teen,135,90,90,,,135,D,Raw,1
Danae Errika Panagiotou,F,Yes,Open,157.5,47,48,,45,112.5,BD,Raw,1
Lydia Sfyraki,F,Yes,Juniors,157.5,67.5,67.5,,50,107.5,BD,Raw,1
Eleni Papadimitriou,F,Yes,Teen,185,79,82.5,,50,135,BD,Raw,1
Noam Steuer,F,No,Teen,185,90,90,,50,135,BD,Raw,1
Sharon Waisman,F,No,Open,195,84,90,,65,130,BD,Raw,1
Steliana-Maria Oprea,F,Yes,Juniors,185,55.2,56,65,37.5,82.5,SBD,Wraps,1
Lydia Sfyraki,F,Yes,Juniors,247.5,67.5,67.5,90,50,107.5,SBD,Wraps,2
Jenny Ntasiou,F,Yes,Masters,217.5,64,67.5,77.5,50,90,SBD,Wraps,2
Danae Errika Panagiotou,F,Yes,Open,260,47,48,102.5,45,112.5,SBD,Raw,1
Noam Steuer,F,Yes,Teen,325,90,90,140,50,135,SBD,Raw,1
Sharon Waisman,F,Yes,Open,325,84,90,130,65,130,SBD,Raw,1
