Place,Name,Sex,BirthDate,Age,Country,State,Equipment,Division,BodyweightKg,WeightClassKg,Bench1Kg,Bench2Kg,Bench3Kg,Best3BenchKg,Deadlift1Kg,Deadlift2Kg,Deadlift3Kg,Deadlift4Kg,Best3DeadliftKg,TotalKg,Event,Team
1,Whitley Hamilton,F,1997-10-16,24,USA,TX,Raw,DT Int,121.01,125,55,60,67.5,67.5,150,155,165,175,165,232.5,BD,Pittsburg
1,Macey Stewart,F,,19,USA,TX,Raw,DT Novice,71.24,75,-52.5,55,-60,55,102.5,115,120,-125,120,175,BD,Daingerfield
2,Gloria Leija,F,1983-03-21,38,,,Raw,DT Novice,74.57,75,-50,-50,50,50,100,102.5,107.5,110,107.5,157.5,BD,
1,Kayla Edmondson,F,1997-06-04,24,USA,TX,Raw,DT Novice,85.63,90,42.5,47.5,-50,47.5,97.5,105,112.5,117.5,112.5,160,BD,Henderson
1,Victoria Barrera,F,2001-06-09,20,USA,TX,Raw,DT Novice,94.98,100,52.5,57.5,-62.5,57.5,115,-122.5,132.5,137.5,132.5,190,BD,Kilgore
1,Ronni Schaber,F,1997-09-05,24,USA,TX,Raw,DT Novice,106.68,110,-65,65,70,70,-122.5,-122.5,122.5,,122.5,192.5,BD,Mt Pleasant
1,Sheyanne Charlton,F,1990-06-01,31,USA,TX,Raw,DT Novice,120.2,125,45,52.5,-57.5,52.5,97.5,105,115,130,115,167.5,BD,Henderson
1,Karla Fuentes,F,1990-08-20,31,USA,TX,Raw,DT Open,59.05,60,60,65,-67.5,65,142.5,-155,155,,155,220,BD,
1,Ronni Schaber,F,1997-09-05,24,USA,TX,Raw,DT Open,106.68,110,-65,65,70,70,-122.5,-122.5,122.5,,122.5,192.5,BD,Mt Pleasant
1,Grace Dailey,F,2006-05-23,15,USA,TX,Raw,DT Teen,59.3,60,42.5,45,-50,45,95,97.5,-107.5,,97.5,142.5,BD,Pittsburg
1,Tara Herod,F,2005-09-07,16,USA,TX,Raw,DT Teen,62.77,67.5,32.5,-40,40,40,70,82.5,92.5,,92.5,132.5,BD,Palestine
1,Jodie Duncan,F,1974-11-19,47,USA,TX,Raw,M1,69.5,75,62.5,-65,65,65,127.5,132.5,135,,135,200,BD,Pittsburg
1,Elisabeth Pinkston,F,1999-06-24,22,USA,TX,Raw,Nov,108.5,110,30,35,-40,35,65,75,87.5,-100,87.5,122.5,BD,
1,Lesliee Del Angel,F,1998-12-27,22,USA,TX,Raw,Open,59.5,60,42.5,-47.5,47.5,47.5,115,125,-140,,125,172.5,BD,Kilgore
1,Jodie Duncan,F,1974-11-19,47,USA,TX,Raw,Open,69.5,75,62.5,-65,65,65,127.5,132.5,135,,135,200,BD,Pittsburg
1,Cheyenne Sanchez,F,1995-07-26,26,USA,TX,Raw,Open,87.9,90,55,-60,62.5,62.5,152.5,160,170,-177.5,170,232.5,BD,Henderson
1,Stefanie Herod,F,1992-09-09,29,USA,TX,Raw,Open,101.87,110,90,95,100,100,197.5,212.5,220,-227.5,220,320,BD,Palestine
1,Brooke Renner,F,2000-05-24,21,USA,TX,Raw,P/F/M,92.62,100,32.5,37.5,-45,37.5,85,95,102.5,115,102.5,140,BD,
1,Kristen Brown,F,2006-09-08,15,USA,TX,Single-ply,Teen,60.7,67.5,40,45,-52.5,45,67.5,90,100,-110,100,145,BD,
1,Emma Gee,F,2004-07-24,17,USA,TX,Single-ply,Teen,79.37,82.5,82.5,90,-97.5,90,110,117.5,125,-130,125,215,BD,Kilgore
1,Liana Flores,F,,28,USA,TX,Raw,Nov,76.92,82.5,,,,,77.5,97.5,107.5,112.5,107.5,107.5,D,Daingerfield
1,Donnie Duncan,M,1974-02-24,47,USA,TX,Raw,DT Master 1,86.63,90,105,112.5,117.5,117.5,227.5,237.5,240,247.5,240,357.5,BD,Pitt
1,Christopher Davis,M,1980-10-23,41,USA,TX,Raw,DT Master 1,127.45,140,105,110,-117.5,110,182.5,200,215,-220,215,325,BD,Henderson
1,Randy McDuff,M,2004-12-31,16,,,Raw,DT Novice,69.3,75,-40,40,50,50,95,107.5,120,127.5,120,170,BD,Henderson
1,Kevin Chavez,M,2000-02-22,21,,,Raw,DT Novice,76.11,82.5,127.5,132.5,-140,132.5,207.5,215,220,227.5,220,352.5,BD,Kilgore
1,Griffin Logan,M,1998-04-15,23,USA,TX,Raw,DT Novice,99.15,100,130,-135,-135,130,175,185,200,230,200,330,BD,Pittsburg
1,Christian Kearney,M,1988-09-20,33,USA,TX,Raw,DT Open,65.95,67.5,130,140,-142.5,140,277.5,297.5,305,315,305,445,BD,Pittsburg
1,Cornelius Smith #1,M,1993-05-03,28,USA,TX,Raw,DT Open,78.11,82.5,110,117.5,-122.5,117.5,190,202.5,-205,,202.5,320,BD,Palestine
1,Donnie Duncan,M,1974-02-24,47,USA,TX,Raw,DT Open,86.63,90,105,112.5,117.5,117.5,227.5,237.5,240,247.5,240,357.5,BD,Pitt
1,Cole Young,M,1993-03-04,28,USA,TX,Raw,DT Open,90.36,100,102.5,110,-117.5,110,192.5,210,220,,220,330,BD,Henderson
2,Logan White,M,1991-02-03,30,USA,TX,Raw,DT Open,95.98,100,87.5,-100,-100,87.5,192.5,205,212.5,,212.5,300,BD,Henderson
1,Joshua Tillis,M,1997-01-15,24,USA,TX,Raw,DT Open,104.6,110,160,170,182.5,182.5,250,257.5,265,272.5,265,447.5,BD,Palestine
2,Logan Edmondson,M,1992-01-29,29,USA,TX,Raw,DT Open,104.87,110,142.5,-150,-150,142.5,-272.5,272.5,-295,,272.5,415,BD,Henderson
3,Aaron Baxter #2,M,1979-12-15,41,USA,TX,Raw,DT Open,100.7,110,137.5,147.5,-160,147.5,185,200,210,,210,357.5,BD,Daingerfield
4,Sy Dickerson,M,1982-10-25,39,USA,TX,Raw,DT Open,109.86,110,112.5,117.5,-120,117.5,180,185,190,200,190,307.5,BD,Mt Pleasant
1,Gabriel Barrera,M,,34,,,Raw,DT Open,110.31,125,122.5,130,137.5,137.5,230,240,-242.5,,240,377.5,BD,Mt Pleasant
1,Max Lawley,M,1990-11-16,31,USA,TX,Raw,DT Open,126.46,140,142.5,152.5,-160,152.5,227.5,245,-255,,245,397.5,BD,Kilgore
1,JP Hucklebridge,M,1998-12-21,22,USA,TX,Raw,DT P/F/M,86.63,90,87.5,-97.5,97.5,97.5,192.5,202.5,-207.5,,202.5,300,BD,Palestine
1,Christian Kearney,M,1988-09-20,33,USA,TX,Raw,DT Sub Master,65.95,67.5,130,140,-142.5,140,277.5,297.5,305,315,305,445,BD,Pittsburg
1,Jakob Conner,M,1986-01-08,35,USA,TX,Raw,DT Sub Master,136.8,140,125,135,-145,135,265,277.5,285,-287.5,285,420,BD,
2,Max Lawley,M,1990-11-16,31,USA,TX,Raw,DT Open,126.46,140,142.5,152.5,-160,152.5,227.5,245,-255,,245,397.5,BD,Kilgore
3,Matthew Herbert,M,1994-01-20,27,USA,TX,Raw,DT Open,131.63,140,87.5,92.5,97.5,97.5,165,175,192.5,-195,192.5,290,BD,Pittsburg
1,Wyatt Allen,M,2006-06-06,15,USA,TX,Raw,DT Teen,66.85,67.5,82.5,-92.5,92.5,92.5,127.5,135,137.5,145,137.5,230,BD,Henderson
1,Donnie Duncan,M,1974-02-24,47,USA,TX,Raw,M1,86.63,90,105,112.5,117.5,117.5,227.5,237.5,240,247.5,240,357.5,BD,Pitt
1,Brandon Boyd #1,M,1980-02-26,41,USA,TX,Raw,M1,122.1,125,170,182.5,185,185,275,300,-320,,300,485,BD,Henderson
2,Rick Pyle,M,1978-07-04,43,USA,TX,Raw,M1,115.57,125,182.5,197.5,207.5,207.5,235,250,267.5,,267.5,475,BD,Kilgore
3,John Herod,M,1979-04-22,42,USA,TX,Raw,M1,115.93,125,165,-175,175,175,262.5,275,285,,285,460,BD,Palestine
1,Donnie Duncan,M,1974-02-24,47,USA,TX,Raw,Open,86.63,90,105,112.5,117.5,117.5,227.5,237.5,240,247.5,240,357.5,BD,Pitt
1,William Edmondson,M,1968-03-12,53,USA,TX,Raw,Open,95.25,100,147.5,160,-165,160,235,247.5,-265,,247.5,407.5,BD,Henderson
2,Chris Smith #35,M,1991-06-07,30,USA,TX,Raw,Open,96.52,100,102.5,117.5,125,125,190,195,205,-212.5,205,330,BD,Daingerfield
1,Robert Horn,M,1979-11-07,42,USA,TX,Raw,Open,109.2,110,132.5,140,150,150,205,217.5,232.5,-237.5,232.5,382.5,BD,Kilgore
2,Cody Murphy,M,1993-09-03,28,USA,TX,Raw,Open,104.4,110,130,150,-160,150,160,215,227.5,237.5,227.5,377.5,BD,Daingerfield
3,Dennis Neuber,M,,26,USA,TX,Raw,Open,107.13,110,112.5,130,142.5,142.5,142.5,160,-167.5,,160,302.5,BD,Mt Pleasant
1,Rick Pyle,M,1978-07-04,43,USA,TX,Raw,Open,115.57,125,182.5,197.5,207.5,207.5,235,250,267.5,,267.5,475,BD,Kilgore
1,AJ Charlton,M,1991-12-26,29,USA,TX,Raw,Open,139.16,140,160,170,-182.5,170,280,300,317.5,,317.5,487.5,BD,Henderson
1,PJ Armstrong,M,1984-10-23,37,USA,TX,Raw,SM,93.8,100,102.5,110,115,115,190,200,-207.5,,200,315,BD,
1,Zane Smith #1,M,2005-04-11,16,,,Single-ply,DT Open,70.66,75,127.5,145,150,150,165,190,-202.5,,190,340,BD,Kilgore
1,Landon Moses,M,2004-12-21,16,USA,TX,Single-ply,DT Open,85.1,90,102.5,115,-132.5,115,150,167.5,182.5,-192.5,182.5,297.5,BD,
1,Lane Davis,M,2003-11-12,18,USA,TX,Single-ply,DT Teen,63.6,67.5,80,92.5,97.5,97.5,130,145,150,152.5,150,247.5,BD,Pittsburg
1,Donnie Duncan,M,1974-02-24,47,USA,TX,Raw,DT Master 1,86.63,90,105,112.5,117.5,117.5,,,,,,117.5,B,Pitt
1,Donnie Duncan,M,1974-02-24,47,USA,TX,Raw,DT Open,86.63,90,105,112.5,117.5,117.5,,,,,,117.5,B,Pitt
1,Matthew Herbert,M,1994-01-20,27,USA,TX,Raw,DT Open,131.63,140,87.5,92.5,97.5,97.5,,,,,,97.5,B,Pittsburg
1,Donnie Duncan,M,1974-02-24,47,USA,TX,Raw,M1,86.63,90,105,112.5,117.5,117.5,,,,,,117.5,B,Pitt
1,Donnie Duncan,M,1974-02-24,47,USA,TX,Raw,Open,86.63,90,105,112.5,117.5,117.5,,,,,,117.5,B,Pitt
1,Zane Smith #1,M,2005-04-11,16,,,Single-ply,DT Open,70.66,75,127.5,145,150,150,,,,,,150,B,Kilgore
1,Donnie Duncan,M,1974-02-24,47,USA,TX,Raw,DT Master 1,86.63,90,,,,,227.5,237.5,240,247.5,240,240,D,Pitt
1,Jacob Jester,M,1986-05-27,35,USA,TX,Raw,DT Novice,101.42,110,,,,,185,195,205,215,205,205,D,Kilgore
1,Donnie Duncan,M,1974-02-24,47,USA,TX,Raw,DT Open,86.63,90,,,,,227.5,237.5,240,247.5,240,240,D,Pitt
1,Jacob Jester,M,1986-05-27,35,USA,TX,Raw,DT Open,101.42,110,,,,,185,195,205,215,205,205,D,Kilgore
1,JP Hucklebridge,M,1998-12-21,22,USA,TX,Raw,DT P/F/M,86.63,90,,,,,192.5,202.5,-207.5,,202.5,202.5,D,Palestine
1,Matthew Herbert,M,1994-01-20,27,USA,TX,Raw,DT Open,131.63,140,,,,,165,175,192.5,-195,192.5,192.5,D,Pittsburg
1,Donnie Duncan,M,1974-02-24,47,USA,TX,Raw,M1,86.63,90,,,,,227.5,237.5,240,247.5,240,240,D,Pitt
1,Donnie Duncan,M,1974-02-24,47,USA,TX,Raw,Open,86.63,90,,,,,227.5,237.5,240,247.5,240,240,D,Pitt
