Division,WeightClassKg,Place,Name,Team,BodyweightKg,Best3SquatKg,Best3BenchKg,Best3DeadliftKg,TotalKg,Equipment,Event,Sex
Boys,51.71,1,Thomas Soto,Corpus Christi Calallen,51.53,174.63,81.65,183.7,439.98,Single-ply,SBD,M
Boys,51.71,2,Daniel Porras,Orange Grove,50.98,127.01,74.84,149.69,351.53,Single-ply,SBD,M
Boys,51.71,3,Randy Trevino,Gregory-Portland,51.35,136.08,72.57,131.54,340.19,Single-ply,SBD,M
Boys,51.71,4,Bobby Bourlon,Banquete,51.35,120.2,79.38,108.86,308.44,Single-ply,SBD,M
Boys,55.79,5,Robert Ramos,Corpus Christi Tuloso-Midway,51.75,120.2,52.16,127.01,299.37,Single-ply,SBD,M
Boys,51.71,6,Pete Olivarez,Orange Grove,47.17,108.86,58.97,111.13,278.96,Single-ply,SBD,M
Boys,51.71,DQ,Patrick Ayala,Banquete,49.35,74.84,,,,Single-ply,SBD,M
Boys,55.79,1,Robert Chapa,Gregory-Portland,55.79,176.9,92.99,174.63,444.52,Single-ply,SBD,M
Boys,59.87,2,John Starks,Banquete,55.88,142.88,102.06,163.29,408.23,Single-ply,SBD,M
Boys,55.79,3,Mauro Garcia,Port Lavaca Calhoun,53.98,136.08,77.11,149.69,362.87,Single-ply,SBD,M
Boys,55.79,4,Jacob de la Paz,Corpus Christi Calallen,55.34,136.08,61.23,145.15,342.46,Single-ply,SBD,M
Boys,59.87,5,Edward Davidson,Alice,55.97,120.2,74.84,142.88,337.93,Single-ply,SBD,M
Boys,55.79,6,Jared Medina,Banquete,54.98,113.4,74.84,136.08,324.32,Single-ply,SBD,M
Boys,55.79,7,Garrett Wildman,Banquete,55.25,120.2,61.23,129.27,310.71,Single-ply,SBD,M
Boys,55.79,8,Cesar Garcia,Bishop,55.7,106.59,61.23,113.4,281.23,Single-ply,SBD,M
Boys,55.79,9,Amit Patel,Three Rivers,53.52,88.45,56.7,113.4,258.55,Single-ply,SBD,M
Boys,55.79,10,Caleb Phillips,Port Lavaca Calhoun,54.88,99.79,52.16,102.06,254.01,Single-ply,SBD,M
Boys,55.79,11,Sam Collier,Three Rivers,53.25,70.31,47.63,106.59,224.53,Single-ply,SBD,M
Boys,55.79,DQ,Kevin Sendejo,Crystal City,52.62,,,,,Single-ply,SBD,M
Boys,55.79,DQ,Randy Mancha,Crystal City,55.25,108.86,,,,Single-ply,SBD,M
Boys,59.87,1,Daniel Chapa,Gregory-Portland,57.97,190.51,106.59,188.24,485.34,Single-ply,SBD,M
Boys,59.87,2,Dallas de la Cruz,Mathis,59.42,183.7,102.06,183.7,469.47,Single-ply,SBD,M
Boys,67.13,3,Jeff Kearns,Gregory-Portland,60.06,181.44,99.79,185.97,467.2,Single-ply,SBD,M
Boys,59.87,4,Michael Casarez,Three Rivers,57.7,170.1,83.91,174.63,428.64,Single-ply,SBD,M
Boys,67.13,5,Felix Gutierrez,Crystal City,59.96,158.76,97.52,165.56,421.84,Single-ply,SBD,M
Boys,59.87,6,Donovan Wilson,Aransas Pass,57.24,149.69,81.65,154.22,385.55,Single-ply,SBD,M
Boys,59.87,7,Christian Salazar,Corpus Christi Tuloso-Midway,59.6,133.81,90.72,138.35,362.87,Single-ply,SBD,M
Boys,59.87,8,John Rennigan,Gregory-Portland,57.97,120.2,74.84,149.69,344.73,Single-ply,SBD,M
Boys,59.87,9,Tristan Ruiz,Corpus Christi Calallen,59.42,127.01,70.31,129.27,326.59,Single-ply,SBD,M
Boys,59.87,10,Garrett Canchola,Orange Grove,59.15,115.67,58.97,131.54,306.17,Single-ply,SBD,M
Boys,59.87,DQ,Ricky Hinojosa,Port Lavaca Calhoun,59.51,151.95,90.72,,,Single-ply,SBD,M
Boys,59.87,DQ,Manuel Rios,Banquete,57.7,81.65,63.5,,,Single-ply,SBD,M
Boys,67.13,1,Travis Charles,Bishop,66.5,226.8,127.01,222.26,576.06,Single-ply,SBD,M
Boys,67.13,2,Rico Rodriguez,San Diego,66.77,199.58,142.88,226.8,569.26,Single-ply,SBD,M
Boys,67.13,3,Jared Reilly,Corpus Christi Calallen,66.77,195.04,113.4,226.8,535.24,Single-ply,SBD,M
Boys,67.13,4,Elijah Velasquez,Port Lavaca Calhoun,62.32,163.29,102.06,158.76,424.11,Single-ply,SBD,M
Boys,67.13,5,Jimmy Gonzales,Port Lavaca Calhoun,64.41,154.22,90.72,172.37,417.3,Single-ply,SBD,M
Boys,67.13,6,Josue Gonzalez,Corpus Christi Calallen,65.68,138.35,97.52,161.03,396.89,Single-ply,SBD,M
Boys,74.84,7,Ryan Tosas,Corpus Christi Tuloso-Midway,67.36,140.61,90.72,149.69,381.02,Single-ply,SBD,M
Boys,67.13,8,Colton Hughes,Corpus Christi Tuloso-Midway,66.13,136.08,83.91,156.49,376.48,Single-ply,SBD,M
Boys,67.13,9,Albert Salinas,Bishop,66.68,145.15,79.38,149.69,374.21,Single-ply,SBD,M
Boys,67.13,10,Byron Davidson,Corpus Christi Calallen,66.86,136.08,79.38,149.69,365.14,Single-ply,SBD,M
Boys,67.13,11,Jordan Cole,Aransas Pass,63.87,129.27,90.72,133.81,353.8,Single-ply,SBD,M
Boys,67.13,12,Eric Johnson,Mathis,62.14,129.27,61.23,142.88,333.39,Single-ply,SBD,M
Boys,74.84,13,Zeke Cantu,Banquete,67.22,102.06,83.91,129.27,315.25,Single-ply,SBD,M
Boys,67.13,14,Alex Rodriguez #3,Corpus Christi Calallen,60.96,106.59,58.97,120.2,285.76,Single-ply,SBD,M
Boys,67.13,DQ,Miguel Vasquez,Corpus Christi Calallen,63.05,113.4,56.7,,,Single-ply,SBD,M
Boys,67.13,DQ,Duncan Marengo,Corpus Christi Tuloso-Midway,67.13,,,,,Single-ply,SBD,M
Boys,67.13,DQ,Jeremiah Keever,Bishop,66.22,,,,,Single-ply,SBD,M
Boys,67.13,DQ,Quatro Vera,Bishop,63.87,,,,,Single-ply,SBD,M
Boys,67.13,DQ,Miguel Salazar,Corpus Christi Tuloso-Midway,66.5,172.37,,,,Single-ply,SBD,M
Boys,67.13,DQ,Daniel Rivera,Orange Grove,65.41,156.49,,,,Single-ply,SBD,M
Boys,74.84,1,JJ Gonzalez,Gregory-Portland,69.85,249.48,163.29,233.6,646.37,Single-ply,SBD,M
Boys,74.84,2,Dillion Torres,Beeville Jones,72.48,183.7,124.74,195.04,503.49,Single-ply,SBD,M
Boys,74.84,3,Tristan Peletire,Beeville Jones,74.48,183.7,131.54,183.7,498.95,Single-ply,SBD,M
Boys,74.84,4,Marcus Klamn,Port Lavaca Calhoun,74.39,170.1,117.93,190.51,478.54,Single-ply,SBD,M
Boys,74.84,5,Josh Munoz,Beeville Jones,69.49,170.1,113.4,192.78,476.27,Single-ply,SBD,M
Boys,74.84,6,Nathan Sanchez #3,Corpus Christi Calallen,70.76,185.97,97.52,190.51,474,Single-ply,SBD,M
Boys,74.84,7,Jared Garcia,Corpus Christi Calallen,72.8,158.76,113.4,185.97,458.13,Single-ply,SBD,M
Boys,74.84,8,Carlos Charles,Bishop,71.58,170.1,104.33,181.44,455.86,Single-ply,SBD,M
Boys,74.84,9,Jake McDavid,Aransas Pass,73.21,163.29,102.06,170.1,435.45,Single-ply,SBD,M
Boys,74.84,10,Austin Castillo,Corpus Christi Calallen,72.48,154.22,92.99,181.44,428.64,Single-ply,SBD,M
Boys,74.84,11,Michael Garcia #13,Alice,71.03,158.76,79.38,181.44,419.57,Single-ply,SBD,M
Boys,74.84,12,Tristan Favor,Corpus Christi Calallen,71.4,147.42,88.45,158.76,394.63,Single-ply,SBD,M
Boys,74.84,13,Aaron Flores #3,Corpus Christi Calallen,70.58,138.35,90.72,156.49,385.55,Single-ply,SBD,M
Boys,74.84,14,Justin Sobezak,Corpus Christi Tuloso-Midway,70.9,136.08,86.18,149.69,371.95,Single-ply,SBD,M
Boys,74.84,15,Aaron Martines,Corpus Christi Calallen,73.21,136.08,70.31,136.08,342.46,Single-ply,SBD,M
Boys,74.84,16,Martin Fonseca,Mathis,71.67,129.27,63.5,136.08,328.85,Single-ply,SBD,M
Boys,74.84,17,Xaivian Stewart,Banquete,69.13,106.59,79.38,136.08,322.05,Single-ply,SBD,M
Boys,74.84,DQ,Jose Gonzalez #15,Alice,73.48,165.56,74.84,,,Single-ply,SBD,M
Boys,82.1,DQ,Stevin Leal,Corpus Christi Tuloso-Midway,75.02,,,,,Single-ply,SBD,M
Boys,74.84,DQ,Tyler Pavlas,Orange Grove,70.4,,,,,Single-ply,SBD,M
Boys,74.84,DQ,Victor Ta,Port Lavaca Calhoun,74.75,181.44,,,,Single-ply,SBD,M
Boys,82.1,1,Ryan Torres,Gregory-Portland,80.1,242.67,154.22,254.01,650.91,Single-ply,SBD,M
Boys,82.1,2,Andy Mohl,Corpus Christi Tuloso-Midway,81.1,233.6,154.22,204.12,591.94,Single-ply,SBD,M
Boys,82.1,3,Moses Rios,Mathis,79.47,201.85,104.33,192.78,498.95,Single-ply,SBD,M
Boys,82.1,4,Chris Hernandez,Gregory-Portland,80.74,181.44,108.86,185.97,476.27,Single-ply,SBD,M
Boys,82.1,5,Joe Hernandez #4,Alice,82.1,174.63,111.13,165.56,451.32,Single-ply,SBD,M
Boys,82.1,6,Aj Benavides,Alice,77.11,158.76,113.4,170.1,442.25,Single-ply,SBD,M
Boys,82.1,7,Tony Zapata,Alice,81.37,185.97,90.72,165.56,442.25,Single-ply,SBD,M
Boys,82.1,8,Mario Rodriguez #4,Corpus Christi Calallen,77.47,156.49,97.52,161.03,415.04,Single-ply,SBD,M
Boys,82.1,9,Ricky de la Paz,San Diego,78.83,131.54,86.18,154.22,371.95,Single-ply,SBD,M
Boys,82.1,10,Gilbert Aguirre,Three Rivers,76.02,133.81,72.57,133.81,340.19,Single-ply,SBD,M
Boys,82.1,DQ,Drew Ortiz,Port Lavaca Calhoun,79.47,170.1,,,,Single-ply,SBD,M
Boys,89.81,1,Brandon Griffith,Port Lavaca Calhoun,88.9,263.08,172.37,249.48,684.92,Single-ply,SBD,M
Boys,89.81,2,Kameron Handy,Corpus Christi Tuloso-Midway,85.87,240.4,145.15,215.46,601.01,Single-ply,SBD,M
Boys,89.81,3,Nathan Morin,George West,88.81,226.8,120.2,197.31,544.31,Single-ply,SBD,M
Boys,89.81,4,Roy Saenz,Bishop,86.91,190.51,115.67,213.19,519.36,Single-ply,SBD,M
Boys,89.81,5,Ryan de la Cruz,San Diego,86.82,229.06,43.09,231.33,503.49,Single-ply,SBD,M
Boys,89.81,6,Ben Burkett,Bishop,85.91,181.44,117.93,181.44,480.81,Single-ply,SBD,M
Boys,89.81,7,Leo Adams,Alice,87.91,183.7,154.22,142.88,480.81,Single-ply,SBD,M
Boys,89.81,8,Jacob Flores,Beeville Jones,85.55,190.51,106.59,179.17,476.27,Single-ply,SBD,M
Boys,89.81,9,Riley Richardson,Gregory-Portland,89.72,167.83,111.13,185.97,464.93,Single-ply,SBD,M
Boys,99.79,10,Jesus Carrasco,Alice,89.99,172.37,90.72,183.7,446.79,Single-ply,SBD,M
Boys,89.81,11,Lonnie Reyes,Three Rivers,86.18,158.76,113.4,172.37,444.52,Single-ply,SBD,M
Boys,89.81,12,Correy Wallace,Orange Grove,86,151.95,81.65,183.7,417.3,Single-ply,SBD,M
Boys,89.81,13,Jon Echavarria,Mathis,85.28,161.03,77.11,172.37,410.5,Single-ply,SBD,M
Boys,89.81,14,Daniel Echavarria,Mathis,88.18,156.49,88.45,156.49,401.43,Single-ply,SBD,M
Boys,89.81,15,Aaron Meinecke,Three Rivers,85.55,142.88,79.38,165.56,387.82,Single-ply,SBD,M
Boys,99.79,DQ,Justin Medrano,Mathis,89.99,,,,,Single-ply,SBD,M
Boys,89.81,DQ,Quinton Baria,Corpus Christi Tuloso-Midway,84.91,,,,,Single-ply,SBD,M
Boys,89.81,DQ,Vincent Rodriguez,Corpus Christi Tuloso-Midway,86.18,,,,,Single-ply,SBD,M
Boys,89.81,DQ,Fernando Flores,Corpus Christi Tuloso-Midway,84.59,,,,,Single-ply,SBD,M
Boys,99.79,1,Alex Tanguma,Corpus Christi Calallen,92.99,231.33,151.95,242.67,625.96,Single-ply,SBD,M
Boys,99.79,2,AJ Alvarez,Bishop,92.53,240.4,145.15,238.14,623.69,Single-ply,SBD,M
Boys,99.79,3,Marco Balboa,Alice,93.98,240.4,138.35,233.6,612.35,Single-ply,SBD,M
Boys,99.79,4,Justin Lomas,Crystal City,98.79,226.8,120.2,215.46,562.45,Single-ply,SBD,M
Boys,99.79,5,Aric Gamez,Beeville Jones,94.35,222.26,133.81,183.7,539.77,Single-ply,SBD,M
Boys,99.79,6,Luis Guerra,Bishop,95.53,219.99,92.99,208.65,521.63,Single-ply,SBD,M
Boys,99.79,7,John Rivera,Alice,93.8,183.7,111.13,192.78,487.61,Single-ply,SBD,M
Boys,99.79,8,Darren Garcia,Crystal City,91.63,183.7,97.52,151.95,433.18,Single-ply,SBD,M
Boys,99.79,9,Shane Edens,Three Rivers,92.99,136.08,83.91,154.22,374.21,Single-ply,SBD,M
Boys,99.79,10,Nathaniel Segovia,Beeville Jones,93.89,102.06,56.7,68.04,226.8,Single-ply,SBD,M
Boys,99.79,DQ,Zach Collings,Corpus Christi Calallen,90.26,138.35,,,,Single-ply,SBD,M
Boys,99.79,DQ,Zack Gonzales,Orange Grove,94.44,,,,,Single-ply,SBD,M
Boys,99.79,DQ,Fabien Huerta,Crystal City,96.98,149.69,92.99,,,Single-ply,SBD,M
Boys,109.77,1,Alex Garcia #6,San Diego,108.68,244.94,147.42,204.12,596.47,Single-ply,SBD,M
Boys,109.77,2,Jonathon Chavana,Port Lavaca Calhoun,100.7,226.8,147.42,208.65,582.87,Single-ply,SBD,M
Boys,109.77,3,Tk Nolte,Gregory-Portland,106.87,226.8,122.47,213.19,562.45,Single-ply,SBD,M
Boys,109.77,4,Blade Bronstad,Corpus Christi Calallen,104.78,206.38,120.2,226.8,553.38,Single-ply,SBD,M
Boys,109.77,5,Danny Ovalle,Port Lavaca Calhoun,109.77,231.33,122.47,190.51,544.31,Single-ply,SBD,M
Boys,109.77,6,Daniel Diaz,Three Rivers,103.96,204.12,129.27,201.85,535.24,Single-ply,SBD,M
Boys,109.77,7,Bryan Chesser,George West,108.95,226.8,122.47,185.97,535.24,Single-ply,SBD,M
Boys,109.77,8,Ruben Ramirez,Aransas Pass,105.23,183.7,136.08,192.78,512.56,Single-ply,SBD,M
Boys,109.77,9,Tony Barrera,Corpus Christi Tuloso-Midway,102.69,204.12,115.67,190.51,510.29,Single-ply,SBD,M
Boys,109.77,10,Raul Garcia,Corpus Christi Calallen,105.69,181.44,108.86,185.97,476.27,Single-ply,SBD,M
Boys,109.77,11,Sylver Carrizales,Corpus Christi Tuloso-Midway,104.6,179.17,97.52,190.51,467.2,Single-ply,SBD,M
Boys,109.77,12,Marcus Hinojosa,Bishop,107.05,181.44,111.13,167.83,460.4,Single-ply,SBD,M
Boys,109.77,DQ,Louis Joseph,Corpus Christi Tuloso-Midway,108.45,,,,,Single-ply,SBD,M
Boys,109.77,DQ,Aj Martinez,Crystal City,109.32,154.22,99.79,,,Single-ply,SBD,M
Boys,124.74,1,Harley Vickers,Alice,112.04,254.01,174.63,226.8,655.44,Single-ply,SBD,M
Boys,124.74,2,Ram Montalvo,Orange Grove,116.12,263.08,154.22,208.65,625.96,Single-ply,SBD,M
Boys,124.74,3,Brandon Michaels,Gregory-Portland,122.83,226.8,108.86,206.38,542.04,Single-ply,SBD,M
Boys,124.74,4,Warken Oaks,Alice,113.04,199.58,124.74,215.46,539.77,Single-ply,SBD,M
Boys,124.74,5,Jeremiah Reyes,Corpus Christi Calallen,112.04,204.12,129.27,197.31,530.7,Single-ply,SBD,M
Boys,124.74,6,Kris Gebert,Orange Grove,121.11,206.38,113.4,192.78,512.56,Single-ply,SBD,M
Boys,124.74,7,David Silva,Corpus Christi Calallen,112.94,190.51,102.06,204.12,496.68,Single-ply,SBD,M
Boys,124.74,8,Zack Gonzales,Bishop,122.47,181.44,102.06,174.63,458.13,Single-ply,SBD,M
Boys,124.74,9,Dylan Duff,Corpus Christi Calallen,111.04,165.56,111.13,154.22,430.91,Single-ply,SBD,M
Boys,124.74,10,David Ramirez,Corpus Christi Tuloso-Midway,115.62,140.61,99.79,140.61,381.02,Single-ply,SBD,M
Boys,124.74,DQ,Garrett Gallagher,Orange Grove,121.47,174.63,88.45,,,Single-ply,SBD,M
Boys,124.74,DQ,Cameron Ellerbee,Beeville Jones,122.92,179.17,,,,Single-ply,SBD,M
Boys,124.74+,1,Nune Perez,Crystal City,135.62,294.84,183.7,247.21,725.75,Single-ply,SBD,M
Boys,124.74+,2,Adam Aleman,Beeville Jones,154.22,276.69,145.15,231.33,653.17,Single-ply,SBD,M
Boys,124.74+,3,Bryan Tschatschula,Port Lavaca Calhoun,144.24,272.16,170.1,208.65,650.91,Single-ply,SBD,M
Boys,124.74+,4,Thalen Villarreal,Port Lavaca Calhoun,157.4,222.26,158.76,215.46,596.47,Single-ply,SBD,M
Boys,124.74+,5,Antonio Galvan,Aransas Pass,142.16,238.14,151.95,181.44,571.53,Single-ply,SBD,M
Boys,124.74+,6,Victor Lopez,Aransas Pass,134.9,188.24,115.67,149.69,453.59,Single-ply,SBD,M
Boys,124.74+,DQ,Mario Alaniz,San Diego,129.27,,,,,Single-ply,SBD,M
