Division,BodyweightKg,WeightClassKg,Sex,Event,Equipment,Name,BirthDate,Team,Squat1Kg,Squat2Kg,Squat3Kg,Squat4Kg,Best3SquatKg,Bench1Kg,Bench2Kg,Bench3Kg,Bench4Kg,Best3BenchKg,Deadlift1Kg,Deadlift2Kg,Deadlift3Kg,Deadlift4Kg,Best3DeadliftKg,TotalKg,Place
Open,51,52,F,SBD,Wraps,Silvia Lacsi,,Atenas I,90,100,-105,,100,-40,40,-47.5,,40,90,100,110,,110,250,1
Open,71,75,F,SBD,Wraps,Gladis Farias,1977-09-25,Spinardi Team,130,140,-150,,140,85,92.5,97.5,-102.5,97.5,120,130,140,,140,377.5,1
Jun,71.2,75,F,SBD,Wraps,Macarena Bracco,1988-03-03,Indiana,77.5,82.5,-87.5,,82.5,40,45,-47.5,,45,90,95,100,,100,227.5,1
Open,88.2,90,F,SBD,Wraps,Veronica Hugo,1992-06-18,Inndor Gym,-130,-145,-145,,,40,45,50,,50,140,155,162.5,,162.5,,DQ
Tn 16-17,59.3,60,M,SBD,Wraps,Ezequiel Mosquera,1994-10-05,La Bestia,130,-135,-135,,130,60,65,67.5,,67.5,135,140,-145,,140,337.5,1
Tn 18-19,62.5,67.5,M,SBD,Wraps,German Morales,1992-01-10,Extremo,-130,140,-142.5,,140,85,90,-95,,90,150,160,175,180,175,405,1
Open,67.5,67.5,M,SBD,Wraps,Daniel Varela,1987-04-05,Mega Gym,160,180,195,-200,195,110,120,-125,,120,170,-180,180,,180,495,1
Jun,66.4,67.5,M,SBD,Wraps,Jose Salas,1990-04-08,Inndor Gym,165,-170,-170,,165,90,95,100,,100,-155,-155,-155,,,,DQ
Tn 18-19,75,75,M,SBD,Wraps,Miguel Fernandez,,Sparta Gym,135,-140,140,145,140,75,82.5,87.5,-90,87.5,160,170,175,,175,402.5,1
Jun,70.8,75,M,SBD,Wraps,Emilio Gutierrez,1990-11-20,La Bestia,165,-170,-170,,165,85,-95,95,,95,180,-195,195,,195,455,4
Jun,71.8,75,M,SBD,Wraps,Juan Pablo Mari,1991-03-10,Extremo,165,-167.5,175,,175,95,105,-110,,105,160,170,177.5,,177.5,457.5,2
Jun,75,75,M,SBD,Wraps,Ivan Pasarelli,1990-02-05,Spinardi team,160,170,-180,,170,85,95,102.5,,102.5,160,170,185,,185,457.5,3
Jun,72.5,75,M,SBD,Wraps,Santiago Minciacca,1990-01-22,Soria,160,-175,-175,,160,110,120,-125,,120,180,195,210,,210,490,1
Open,74.5,75,M,SBD,Wraps,Augusto Monti,1980-01-22,Spinardi team,130,140,147.5,,147.5,82.5,92.5,97.5,,97.5,130,140,-150,,140,385,1
M 40-44,76.5,82.5,M,SBD,Wraps,Javier Vogel,1969-04-11,Extremo,110,120,135,,135,80,85,90,-95,90,160,180,195,-200,195,420,1
M 45-49,74.5,75,M,SBD,Wraps,Raul Amil,1963-01-05,Spinardi Team,-150,150,160,,160,90,-95,-95,,90,155,165,175,,175,425,1
Tn 16-17,80.6,82.5,M,SBD,Wraps,Pablo Perin,1994-07-04,Soria,115,127.5,-135,,127.5,75,85,-95,,85,-140,140,155,,155,367.5,1
Tn 18-19,78,82.5,M,SBD,Wraps,Erik Mateyka,1993-06-13,Indiana,155,165,172.5,-180,172.5,120,-125,-125,,120,202.5,210,-227.5,,210,502.5,1
Tn 18-19,81,82.5,M,SBD,Wraps,Jonathan Cativelli,1992-11-18,Soria,145,160,170,,170,85,95,-100,,95,200,210,225,,225,490,2
Tn 18-19,80,82.5,M,SBD,Wraps,Joaquin Marcon,1992-12-22,Soria,-140,150,160,,160,85,95,-97.5,,95,200,210,212.5,,212.5,467.5,3
Jun,82.5,82.5,M,SBD,Wraps,Jonathan Rondon,1989-08-04,Indiana,190,200,215,,215,130,135,-140,,135,210,225,235,245,235,585,1
Open,81.5,82.5,M,SBD,Wraps,Ruben Cechini,1983-08-04,Mega Gym,202.5,-217.5,-217.5,,202.5,115,122.5,-125,,122.5,217.5,227.5,232.5,-242.5,232.5,557.5,1
Open,77.9,82.5,M,SBD,Wraps,Ariel Mansilla,1977-02-15,Chavez,170,180,,,180,100,105,110,,110,180,190,200,,200,490,3
Open,82,82.5,M,SBD,Wraps,Marcelo Durbano,1981-04-13,Ironman,140,155,-165,,155,125,130,-137.5,,130,180,200,-205,,200,485,4
Open,82.5,82.5,M,SBD,Wraps,Luis Parisi,1987-03-30,Spinardi team,-195,205,-215,,205,97.5,110,125,,125,200,210,225,,225,555,2
Jun,85.9,90,M,SBD,Wraps,Matias Palacios,1989-08-08,Megagym,170,180,195,,195,120,-125,-125,,120,220,230,240,,240,555,1
Open,90,90,M,SBD,Wraps,Mauro Almiron,1988-09-06,Spinardi Team,275,290,300,,300,140,150,160,,160,260,277.5,295,-300,295,755,1
Open,89.5,90,M,SBD,Wraps,Ramiro Mosquera,1979-01-26,La Bestia,200,210,225,,225,130,140,-150,,140,200,220,-230,,220,585,1
Open,90,90,M,SBD,Wraps,Ignacio Iezzi,1987-10-01,Spinardi Team,160,170,-180,,170,85,95,100,,100,155,165,170,,170,440,2
M 40-44,89.9,90,M,SBD,Wraps,Ismael Luna,1970-09-15,Atenas,200,215,230,240,230,140,150,-157.5,,150,190,210,225,,225,605,1
M 40-44,90,90,M,SBD,Wraps,Juan Silveyra,1970-04-27,Megagym,165,175,190,,190,120,130,140,,140,170,180,190,,190,520,2
Jun,97,100,M,SBD,Wraps,Eloy Gonzalez,1989-04-10,La Bestia,190,-210,210,,210,135,145,-150,,145,210,230,-245,,230,585,1
Jun,98.2,100,M,SBD,Wraps,Exequiel Ortega,1990-05-01,Inndor Gym,180,210,225,,225,80,90,-100,,90,200,225,240,250,240,555,2
Open,96,100,M,SBD,Wraps,Gonzalo Figueroa,1985-03-02,La Palestra,-160,165,175,,175,105,-112.5,-112.5,,105,200,-210,-210,,200,480,4
Open,100,100,M,SBD,Wraps,Andres Hugo,1979-12-26,Inndor Gym,260,280,-300,,280,140,155,170,,170,240,265,275,,275,725,1
Open,98,100,M,SBD,Wraps,Lucas Bertana,1977-02-18,Megagym,220,230,-240,,230,150,160,-165,,160,240,250,260,,260,650,1
Open,92.9,100,M,SBD,Wraps,Jorge Capelari,1974-09-21,Megagym,170,-180,180,,180,-120,130,-140,,130,170,190,200,,200,510,2
Open,94,100,M,SBD,Wraps,Marcos Bravo,1986-07-24,Inndor Gym,150,180,-200,,180,100,120,-140,,120,150,180,-190,,180,480,3
M 40-44,95.3,100,M,SBD,Wraps,Javier Villaverde,1969-03-11,Indiana,215,230,-242.5,,230,150,-160,-160,,150,245,255,265,-277.5,265,645,1
M 45-49,99,100,M,SBD,Wraps,Daniel Matamala,1964-12-01,Region N°6,170,190,200,,200,100,110,120,,120,180,200,225,,225,545,2
M 45-49,93.2,100,M,SBD,Wraps,Ramón Martínez,1966-05-12,Megagym,160,170,190,,190,135,-140,140,,140,210,230,235,,235,565,1
M 55-59,94,100,M,SBD,Wraps,Júlio Chavez #1,1952-08-19,Chavez,-160,160,170,,170,90,95,-100,,95,210,230,240,,240,505,1
Jun,105.5,110,M,SBD,Wraps,Facundo Soria,1991-03-09,Soria,230,245,,,245,150,165,172.5,,172.5,230,245,260,,260,677.5,1
Open,110,110,M,SBD,Wraps,Pablo Perfetti,1980-12-28,Spinardi Team,180,190,205,,205,100,110,120,,120,175,190,200,,200,525,2
Open,104.9,110,M,SBD,Wraps,Marcos Cruz,1980-06-20,Atenas I,230,240,245,257.5,245,120,-127.5,127.5,,127.5,200,220,-230,,220,592.5,1
Open,105.1,110,M,SBD,Wraps,Luis Fuenzalida,1984-09-23,Inndor Gym,195,-220,-225,,195,85,95,-105,,95,195,215,-225,,215,505,3
Open,108.9,110,M,SBD,Wraps,Leonardo Rivarola,1981-03-19,Mega Gym,-260,-260,-265,,,,,,,,,,,,,,DQ
SubM,110,110,M,SBD,Wraps,Claudio Maidana,1972-12-02,Soria,240,255,-270,,255,140,150,155,,155,240,250,260,,260,670,1
Jun,113,125,M,SBD,Wraps,Miguel Barrera,1988-02-15,Muscle,-200,200,,,200,80,,,,80,200,220,,,220,500,1
Open,118,125,M,SBD,Wraps,Mauro Spinardi,1980-02-28,Spinardi Team,345,360,370,,370,205,215,-222.5,,215,315,330,340,,340,925,1
Open,113,125,M,SBD,Wraps,Nicolas Mateyka,1985-07-17,Indiana,230,240,247.5,,247.5,190,200,-210,,200,240,250,-260,,250,697.5,1
Open,130,140,M,SBD,Wraps,Pablo Zalazar,1977-08-31,Mega Gym,180,-200,200,,200,-140,145,155,,155,275,295,-310,,295,650,1
Open,126.4,140,M,SBD,Wraps,Pablo Moyano,1982-12-15,Olympus,200,-210,-210,,200,-145,145,,,145,220,240,250,,250,595,2
Tn 18-19,148,140+,M,SBD,Wraps,Franco Peregrino,1992-11-30,Pringles,180,195,210,,210,110,117.5,-122.5,,117.5,225,240,255,,255,582.5,1
Open,71.9,75,F,B,Raw,Gisella Armesto,1986-01-23,Spinardi Team,,,,,,90,100,-105,,100,,,,,,100,1
Open,75.9,82.5,F,B,Raw,Mariana Medina,,Olympus,,,,,,60,-65,-65,,60,,,,,,60,1
Jun,60.4,67.5,F,B,Raw,Emanuel Ferreyra,,Olympus,,,,,,-105,-105,-105,,,,,,,,,DQ
Jun,75,75,M,B,Raw,Pablo Sanchez,1988-03-02,Ironman,,,,,,120,-122.5,-122.5,,120,,,,,,120,1
Jun,71.9,75,M,B,Raw,Diego Paulette,1991-02-25,Sparta,,,,,,110,115,-122.5,,115,,,,,,115,2
Open,75,75,M,B,Raw,Sergio Barrientos,1978-09-03,Pringles,,,,,,145,150,-155,,150,,,,,,150,1
Open,75,75,M,B,Raw,Gabriel Pizzo,1983-10-27,Sports gym,,,,,,105,115,117.5,,117.5,,,,,,117.5,3
Open,72.5,75,M,B,Raw,Cristian Albornoz,,Elite,,,,,,110,117.5,122.5,,122.5,,,,,,122.5,2
M 40-44,75,75,M,B,Raw,Nestor Gonzalez #1,1970-07-26,Sparta,,,,,,110,120,125,,125,,,,,,125,1
Tn 13-15,82.5,82.5,M,B,Raw,Bruno Carrion,1997-03-07,SAO,,,,,,-82.5,82.5,-87.5,,82.5,,,,,,82.5,1
Jun,81.1,82.5,M,B,Raw,Facundo Galvan,1989-01-28,Extremo,,,,,,120,-130,130,-135,130,,,,,,130,1
Open,80.1,82.5,M,B,Raw,Marcelo Carrizo,,Conesa,,,,,,122.5,-130,-130,,122.5,,,,,,122.5,3
Open,80,82.5,M,B,Raw,Fabian Rossi,1974-07-18,Extremo,,,,,,140,145,150,,150,,,,,,150,2
Open,82.5,82.5,M,B,Raw,Leonardo Casale,1986-11-11,Soria,,,,,,145,155,162.5,,162.5,,,,,,162.5,1
M 40-44,80.9,82.5,M,B,Raw,Jorge Silva,1968-06-26,SAO,,,,,,-180,-180,-180,,,,,,,,,DQ
Open,80.9,82.5,M,B,Raw,Jorge Silva,1968-06-26,SAO,,,,,,-180,-180,-180,,,,,,,,,DQ
Open,87,90,M,B,Raw,Mauricio Torres,1983-07-31,MegaGym,,,,,,140,150,-160,,150,,,,,,150,2
Open,90,90,M,B,Raw,Pablo Irusta,1977-11-12,MegaGym,,,,,,120,-130,-130,,120,,,,,,120,3
Open,85.3,90,M,B,Raw,Andres Manrique,1977-03-31,SAO,,,,,,-170,170,180,185,180,,,,,,180,1
SubM,88.8,90,M,B,Raw,Roque Gallardo,1972-03-01,Elite,,,,,,147.5,-152.5,-152.5,,147.5,,,,,,147.5,1
M 45-49,90,90,M,B,Raw,Antonio Amaya,1963-02-03,MegaGym,,,,,,135,140,-145,,140,,,,,,140,1
M 50-54,88.2,90,M,B,Raw,Aquiles Paredes,,,,,,,,-125,130,-145,,130,,,,,,130,1
M 75-79,89.8,90,M,B,Raw,Carlos Porta,1933-02-03,Chavez,,,,,,85,95,102.5,,102.5,,,,,,102.5,1
Jun,93.5,100,M,B,Raw,Fernando Godoy,1990-06-11,Soria,,,,,,125,135,-150,,135,,,,,,135,1
Jun,91.6,100,M,B,Raw,Ignacio Juarez,1991-03-20,Soria,,,,,,-110,110,115,,115,,,,,,115,2
Open,97.6,100,M,B,Raw,Juan Manavella,1977-09-15,Soria,,,,,,150,160,165,,165,,,,,,165,2
Open,98.7,100,M,B,Raw,Mariano Miravalle,1980-10-24,SportGym,,,,,,-155,-157.5,-160,,,,,,,,,DQ
Tn 18-19,98,100,M,B,Raw,Pablo Beroizza,1993-03-30,Nativo,,,,,,110,120,127.5,,127.5,,,,,,127.5,1
Open,96.5,100,M,B,Raw,Edgardo Bianchi,1984-09-21,,,,,,,175,185,192.5,,192.5,,,,,,192.5,1
Open,110,110,M,B,Raw,German Vaschetto,1976-12-17,Mega Gym,,,,,,170,185,195,,195,,,,,,195,1
M 45-49,110,110,M,B,Raw,Nicodemo Beroiza,1962-01-06,Nativo,,,,,,140,150,155,,155,,,,,,155,1
Open,112,125,M,B,Raw,Jose Garcia #21,,,,,,,,-160,160,187.5,,187.5,,,,,,187.5,2
Open,112,125,M,B,Raw,Emanuel Brendasi,1983-12-28,Region N°5,,,,,,175,185,190,,190,,,,,,190,1
M 45-49,100,100,M,B,Raw,Antonio Liendo,1966-04-22,Olimpus,,,,,,150,160,,,160,,,,,,160,1
M 40-44,100,100,M,B,Raw,Javier Gimenez,1970-06-20,Olimpus,,,,,,-110,110,,,110,,,,,,110,1
