Division,WeightClassKg,Place,Name,Team,BodyweightKg,Best3SquatKg,Best3BenchKg,Best3DeadliftKg,TotalKg,Equipment,Event,Sex,BirthDate
Boys,51.71,1,Nathaniel Donaghey,Electra,51.71,111.13,68.04,120.2,299.37,Single-ply,SBD,M,
Boys,51.71,2,Lucas Woolem,Tom Bean,50.8,113.4,63.5,104.33,281.23,Single-ply,SBD,M,
Boys,51.71,3,Jaden Dobyns,Alvord,51.48,102.06,58.97,113.4,274.42,Single-ply,SBD,M,
Boys,51.71,4,Xavier Marroquin,Strawn,47.45,102.06,56.7,102.06,260.82,Single-ply,SBD,M,
Boys,51.71,5,Joel Jones,Perrin-Whitt,50.62,95.25,52.16,108.86,256.28,Single-ply,SBD,M,
Boys,51.71,6,Calib Hobbs,Hawley,51.44,95.25,54.43,102.06,251.74,Single-ply,SBD,M,
Boys,51.71,7,Kolby Woodall,Alvord,50.62,70.31,52.16,83.91,206.38,Single-ply,SBD,M,
Boys,51.71,NS,Tim Grindstaff,Collinsville,,,,,,Single-ply,SBD,M,
Boys,55.79,1,Leander Lovelace,Alvord,55.79,142.88,83.91,145.15,371.95,Single-ply,SBD,M,
Boys,55.79,2,Wyatt Steinberger,Windthorst,55.16,136.08,90.72,138.35,365.14,Single-ply,SBD,M,
Boys,55.79,3,Cooper Talley,Quanah,55.75,142.88,70.31,151.95,365.14,Single-ply,SBD,M,
Boys,55.79,4,Riggen Thaggard,Electra,54.98,117.93,81.65,140.61,340.19,Single-ply,SBD,M,
Boys,55.79,5,Koda Wood,Quanah,55.38,120.2,68.04,127.01,315.25,Single-ply,SBD,M,
Boys,55.79,6,Tyler Slimp,Alvord,54.57,108.86,65.77,133.81,308.44,Single-ply,SBD,M,
Boys,55.79,7,Will Brown,Quanah,53.89,120.2,65.77,102.06,288.03,Single-ply,SBD,M,
Boys,55.79,8,Chance Dorsey,Santo,53.39,88.45,61.23,111.13,260.82,Single-ply,SBD,M,
Boys,55.79,NS,Gage Griegar,Collinsville,,,,,,Single-ply,SBD,M,
Boys,59.87,1,Wyatt Abbott,Alvord,58.56,172.37,95.25,190.51,458.13,Single-ply,SBD,M,
Boys,59.87,2,Justin Baque,Tom Bean,58.97,163.29,83.91,174.63,421.84,Single-ply,SBD,M,
Boys,59.87,3,Ethan Stalling,Hawley,59.74,163.29,81.65,127.01,371.95,Single-ply,SBD,M,
Boys,59.87,4,Dwight Don Juan,Quanah,59.1,108.86,52.16,136.08,297.1,Single-ply,SBD,M,
Boys,59.87,DQ,Logan Turner,Perrin-Whitt,58.29,147.42,,,,Single-ply,SBD,M,
Boys,59.87,DQ,Kaden Cote,Electra,59.06,122.47,81.65,,,Single-ply,SBD,M,
Boys,67.13,1,Tucker Abbott,Alvord,63.23,217.72,113.4,233.6,564.72,Single-ply,SBD,M,
Boys,67.13,2,Arturo Parra,Chico,65.86,188.24,106.59,192.78,487.61,Single-ply,SBD,M,
Boys,67.13,3,Jason Kaufmann,Quanah,65.86,201.85,97.52,176.9,476.27,Single-ply,SBD,M,
Boys,67.13,4,Trenton Sizemore,Strawn,65.86,181.44,102.06,185.97,469.47,Single-ply,SBD,M,
Boys,67.13,5,Adam Hope,Quanah,65.45,172.37,99.79,195.04,467.2,Single-ply,SBD,M,
Boys,67.13,6,Hut Thornton,Santo,66.5,170.1,95.25,170.1,435.45,Single-ply,SBD,M,
Boys,67.13,7,Xavier Ochoa,Alvord,66.95,158.76,111.13,154.22,424.11,Single-ply,SBD,M,
Boys,67.13,8,Xander Jackson,Quanah,65.82,158.76,90.72,147.42,396.89,Single-ply,SBD,M,
Boys,67.13,9,Casey Beach,Perrin-Whitt,64.59,136.08,79.38,149.69,365.14,Single-ply,SBD,M,
Boys,67.13,10,Chase Waller,Tioga,65.36,129.27,86.18,149.69,365.14,Single-ply,SBD,M,
Boys,67.13,DQ,Cory Lane,Anson,67.09,142.88,,,,Single-ply,SBD,M,
Boys,67.13,DQ,Matthew Jimenez,Haskell,65.54,,,,,Single-ply,SBD,M,
Boys,74.84,1,Rayce Pennartz,Alvord,73.12,213.19,115.67,208.65,537.51,Single-ply,SBD,M,
Boys,74.84,2,Trevor Patterson,Electra,71.4,199.58,117.93,192.78,510.29,Single-ply,SBD,M,
Boys,74.84,3,Brayden Tidrow,Haskell,73.75,183.7,102.06,190.51,476.27,Single-ply,SBD,M,
Boys,74.84,4,Isaac Vara,Alvord,74.43,172.37,122.47,163.29,458.13,Single-ply,SBD,M,
Boys,74.84,5,Ethan Cato,Quanah,73.21,181.44,92.99,179.17,453.59,Single-ply,SBD,M,
Boys,74.84,6,Quinten Daughtery,Quanah,74.84,167.83,90.72,181.44,439.98,Single-ply,SBD,M,
Boys,74.84,7,Owen Loveless,Quanah,68.99,170.1,102.06,158.76,430.91,Single-ply,SBD,M,
Boys,74.84,8,Chance Brandon,Quanah,74.84,163.29,90.72,170.1,424.11,Single-ply,SBD,M,
Boys,74.84,9,Trey Pender,Santo,72.57,145.15,90.72,165.56,401.43,Single-ply,SBD,M,
Boys,74.84,10,Gunner Smith,Archer City,74.3,149.69,108.86,142.88,401.43,Single-ply,SBD,M,
Boys,74.84,NS,Azik Willis,Collinsville,,,,,,Single-ply,SBD,M,
Boys,74.84,NS,Logan Sides,Santo,,,,,,Single-ply,SBD,M,
Boys,74.84,DQ,Harry Cooper #4,Hawley,73.44,208.65,124.74,,,Single-ply,SBD,M,
Boys,82.1,1,Braydon Garcia,Quanah,79.15,254.01,131.54,244.94,630.49,Single-ply,SBD,M,
Boys,82.1,2,Kyle Nichols,Hawley,81.6,254.01,133.81,213.19,601.01,Single-ply,SBD,M,
Boys,82.1,3,Alex Carey,Hawley,81.28,215.46,142.88,183.7,542.04,Single-ply,SBD,M,
Boys,82.1,4,Martin Hernandez #4,Haskell,78.29,197.31,106.59,206.38,510.29,Single-ply,SBD,M,
Boys,82.1,5,Jacob Farquhar,Santo,78.61,190.51,97.52,208.65,496.68,Single-ply,SBD,M,
Boys,82.1,6,Trevor Henry,Haskell,80.65,179.17,102.06,179.17,460.4,Single-ply,SBD,M,
Boys,82.1,7,Michael Tallant,Santo,79.47,163.29,102.06,174.63,439.98,Single-ply,SBD,M,
Boys,82.1,8,Jesus Molina,Tioga,78.52,131.54,79.38,154.22,365.14,Single-ply,SBD,M,
Boys,82.1,9,Prayze Pierce,Archer City,79.88,131.54,79.38,142.88,353.8,Single-ply,SBD,M,
Boys,82.1,DQ,Branden Firth,Santo,79.15,156.49,,,,Single-ply,SBD,M,
Boys,82.1,DQ,Jakobe McGary,Quanah,79.24,192.78,92.99,,,Single-ply,SBD,M,
Boys,89.81,1,Artem Brendle,Haskell,82.96,195.04,154.22,206.38,555.65,Single-ply,SBD,M,
Boys,89.81,2,Jett Millsop,Strawn,88.63,240.4,122.47,192.78,555.65,Single-ply,SBD,M,
Boys,89.81,3,Justice Baker,Strawn,82.87,215.46,129.27,204.12,548.85,Single-ply,SBD,M,
Boys,89.81,4,Evan Enriquez,Haskell,82.87,195.04,122.47,204.12,521.63,Single-ply,SBD,M,
Boys,89.81,5,Sam Henderson #1,Santo,82.87,206.38,127.01,181.44,514.83,Single-ply,SBD,M,
Boys,89.81,6,Cooper Wheat,Haskell,84.37,179.17,136.08,197.31,512.56,Single-ply,SBD,M,
Boys,89.81,7,Billy Sandoval,Santo,84.5,167.83,90.72,190.51,449.06,Single-ply,SBD,M,
Boys,89.81,8,Cason Serna,Tioga,83.32,170.1,92.99,167.83,430.91,Single-ply,SBD,M,
Boys,89.81,9,Laremi Nava,Quanah,88.86,188.24,83.91,158.76,430.91,Single-ply,SBD,M,
Boys,89.81,10,Brayan Hernandez,Quanah,87.72,158.76,90.72,142.88,392.36,Single-ply,SBD,M,
Boys,89.81,NS,Hezekiah Parker,Hawley,,,,,,Single-ply,SBD,M,
Boys,89.81,NS,Logan Isbell,Haskell,,,,,,Single-ply,SBD,M,
Boys,89.81,NS,Bryce Johnson #6,Collinsville,,,,,,Single-ply,SBD,M,
Boys,99.79,1,Lorenzo Garcia,Strawn,98.43,272.16,145.15,226.8,644.1,Single-ply,SBD,M,
Boys,99.79,2,Luke Short,Petrolia,99.34,215.46,156.49,217.72,589.67,Single-ply,SBD,M,
Boys,99.79,3,Jose Estrada,Strawn,93.08,249.48,127.01,192.78,569.26,Single-ply,SBD,M,
Boys,99.79,4,Dalton Stanley,Tioga,98.29,222.26,163.29,163.29,548.85,Single-ply,SBD,M,
Boys,99.79,5,Lucas Moreno,Hawley,90.95,204.12,111.13,199.58,514.83,Single-ply,SBD,M,
Boys,99.79,6,Luke Peacock,Haskell,94.21,181.44,129.27,188.24,498.95,Single-ply,SBD,M,
Boys,99.79,7,Geovanni Salas,Electra,92.62,190.51,90.72,201.85,483.08,Single-ply,SBD,M,
Boys,99.79,8,Cole Eberhart,Alvord,98.88,174.63,113.4,192.78,480.81,Single-ply,SBD,M,
Boys,99.79,9,Ahlai Don Juan,Quanah,97.48,190.51,88.45,170.1,449.06,Single-ply,SBD,M,
Boys,99.79,10,Lex Laursen,Santo,98.16,163.29,106.59,163.29,433.18,Single-ply,SBD,M,
Boys,99.79,DQ,Josiah St John,Anson,96.98,183.7,142.88,,,Single-ply,SBD,M,
Boys,99.79,DQ,Colton Willett,Haskell,95.8,183.7,,,,Single-ply,SBD,M,
Boys,109.77,1,Meckeal Barrera,Quanah,109.41,294.84,158.76,181.44,635.03,Single-ply,SBD,M,
Boys,109.77,2,Hayden Sands,Alvord,108.91,256.28,151.95,199.58,607.81,Single-ply,SBD,M,
Boys,109.77,3,Devin Whitworth,Petrolia,104.92,204.12,129.27,208.65,542.04,Single-ply,SBD,M,
Boys,109.77,4,Dakota Rodriguez,Haskell,104.83,199.58,115.67,222.26,537.51,Single-ply,SBD,M,
Boys,109.77,5,Cj Call,Quanah,108.41,226.8,131.54,172.37,530.7,Single-ply,SBD,M,
Boys,109.77,6,Jaydon Tatum,Hawley,106.37,176.9,117.93,215.46,510.29,Single-ply,SBD,M,
Boys,109.77,7,Caden West,Haskell,107.64,192.78,111.13,165.56,469.47,Single-ply,SBD,M,
Boys,109.77,8,Kyler Henegar,Lindsay,103.92,174.63,111.13,172.37,458.13,Single-ply,SBD,M,
Boys,109.77,9,James Frye,Alvord,103.83,185.97,102.06,167.83,455.86,Single-ply,SBD,M,
Boys,109.77,10,Stephen Hernandez,Santo,102.56,174.63,106.59,161.03,442.25,Single-ply,SBD,M,
Boys,109.77,DQ,Esi Maldodo,Anson,102.24,158.76,92.99,,,Single-ply,SBD,M,
Boys,109.77,NS,Esteban Hernandez,Collinsville,,,,,,Single-ply,SBD,M,
Boys,124.74,1,Troi Barrera,Quanah,119.43,238.14,136.08,215.46,589.67,Single-ply,SBD,M,
Boys,124.74,2,Samuel Kinder,Perrin-Whitt,113.53,208.65,111.13,204.12,523.9,Single-ply,SBD,M,
Boys,124.74,3,Colby West,Haskell,111.72,190.51,133.81,185.97,510.29,Single-ply,SBD,M,
Boys,124.74,4,Nate Roewe,Haskell,115.8,201.85,127.01,174.63,503.49,Single-ply,SBD,M,
Boys,124.74,5,Layton Morrow,Lindsay,112.85,215.46,97.52,188.24,501.22,Single-ply,SBD,M,
Boys,124.74,6,Adam Crawford,Perrin-Whitt,121.83,185.97,99.79,183.7,469.47,Single-ply,SBD,M,
Boys,124.74,7,Carter Crosson,Haskell,120.66,156.49,102.06,167.83,426.38,Single-ply,SBD,M,
Boys,124.74,DQ,Keaton Tunnell,Strawn,111.08,215.46,117.93,,,Single-ply,SBD,M,
Boys,139.71,1,Angel Raygoza,Tom Bean,132.22,204.12,124.74,185.97,514.83,Single-ply,SBD,M,
Boys,139.71,2,Brett Hamilton,Santo,129.46,210.92,117.93,174.63,503.49,Single-ply,SBD,M,
Boys,139.71,3,Tyler Davis,Alvord,128.09,163.29,92.99,151.95,408.23,Single-ply,SBD,M,
Boys,139.71+,1,Piercyn Brooks,Perrin-Whitt,141.25,174.63,99.79,158.76,433.18,Single-ply,SBD,M,
